,Temperature_C,pH,DO,Depth_Ft,Secchi_Depth,Conductivi,CreationDa,Latitude,Longitude
1,25.1,7.0,10.0,0.0,0.0,0.0,9/13/2017,42.2710666106,-71.8493193997
13,22.5,9.8,9.0,0.0,0.0,0.0,9/13/2017,42.2680487475,-71.853077425
17,25.3,10.28,9.0,0.0,0.0,0.0,9/13/2017,42.2708488483,-71.8531347577
36,29.8,7.0,7.99,3.28,0.0,0.0,9/25/2017,42.2693984858,-71.8523883498
117,26.9,8.01,8.98,16.4,0.0,0.0,9/27/2017,42.271359348,-71.850687326
127,25.7,8.3,9.55,0.0,0.0,0.0,9/27/2017,42.2713531453,-71.8496318765
132,25.6,7.1,8.22,13.2,0.0,0.0,9/27/2017,42.2716023817,-71.8498455307
134,25.0,7.0,7.47,0.0,0.0,0.0,9/27/2017,42.2681331114,-71.8526760161
136,24.8,8.0,8.53,0.0,0.0,0.0,9/27/2017,42.2686674583,-71.8517088287
137,25.6,8.34,9.0,9.8,0.0,0.0,9/27/2017,42.2709560945,-71.8497572702
139,25.0,8.0,9.08,0.0,0.0,0.0,9/27/2017,42.269533476,-71.8518913857
140,25.7,8.5,9.03,13.2,0.0,0.0,9/27/2017,42.2701372668,-71.8501031076
141,25.5,9.0,9.93,0.0,0.0,0.0,9/27/2017,42.2698727334,-71.8511169822
143,26.4,7.0,9.43,0.0,0.0,0.0,9/27/2017,42.2695016253,-71.850104784
176,18.8,7.7,9.6,0.0,0.0,0.0,11/15/2017,42.2709618786,-71.8526463446
177,11.1,8.8,6.33,0.0,0.0,0.0,11/15/2017,42.2688868124,-71.8525166761
180,10.7,7.9,10.41,0.0,0.0,0.0,11/15/2017,42.2713201209,-71.8525516292
181,9.1,7.6,6.4,0.0,0.0,0.0,11/15/2017,42.2683215787,-71.8525562385
188,15.5,8.3,8.4,0.0,0.0,0.0,4/23/2018,42.2704173061,-71.8528494372
189,13.5,8.3,8.0,0.0,0.0,0.0,4/23/2018,42.270113797,-71.8527664566
193,12.3,8.4,8.97,0.0,0.0,0.0,4/23/2018,42.2701378117,-71.8519648117
197,19.0,7.4,5.02,0.0,0.0,0.0,4/23/2018,42.269786658,-71.8489587333
230,26.0,9.8,5.0,0.0,0.0,0.0,5/29/2018,42.2702789625,-71.8497187965
232,26.0,9.1,5.46,0.0,0.0,0.0,5/29/2018,42.2705447533,-71.849622154
234,25.8,8.5,5.9,0.0,0.0,0.0,5/29/2018,42.2706129816,-71.8494639868
238,27.3,8.5,0.01,0.0,0.0,0.0,5/29/2018,42.2699749515,-71.8502674766
242,25.0,8.2,5.74,0.0,0.0,0.0,5/29/2018,42.2713417045,-71.8500520619
243,24.3,7.5,0.06,0.0,0.0,0.0,5/29/2018,42.2699382807,-71.8515116854
246,25.8,7.6,0.07,0.0,0.0,0.0,5/29/2018,42.2707930247,-71.8519585254
247,24.0,8.0,6.1,0.0,0.0,0.0,5/29/2018,42.2707410148,-71.8516920641
248,23.5,8.1,6.3,0.0,0.0,0.0,5/29/2018,42.2702723412,-71.8514159642
249,24.6,7.5,0.04,0.0,0.0,0.0,5/29/2018,42.26996418,-71.8527237087
250,24.3,7.5,0.05,0.0,0.0,0.0,5/29/2018,42.2692404027,-71.8524252294
251,24.2,8.2,7.7,0.0,0.0,0.0,5/29/2018,42.269609919,-71.8500407459
252,23.6,7.5,0.05,0.0,0.0,0.0,5/29/2018,42.2689885272,-71.8530212669
253,23.4,7.5,0.05,0.0,0.0,0.0,5/29/2018,42.2686050548,-71.8533268714
254,24.5,7.6,0.04,0.0,0.0,0.0,5/29/2018,42.2685461722,-71.8519430182
256,19.2,6.3,7.6,0.0,88.0,0.0,9/27/2018,42.2687433744,-71.8512349676
257,20.0,8.4,8.25,26.0,0.0,0.0,9/27/2018,42.2706217233,-71.8522788153
258,19.2,7.6,7.91,0.0,98.0,0.0,9/27/2018,42.2688750414,-71.8515449676
259,19.2,9.1,8.59,19.7,0.0,0.0,9/27/2018,42.2704514033,-71.8521809998
260,18.7,6.28,7.86,0.0,103.0,0.0,9/27/2018,42.2689333747,-71.8520766341
261,18.9,8.73,7.24,26.2,0.0,0.0,9/27/2018,42.2699703178,-71.8514438162
262,19.2,7.33,7.61,3.5,1.2,0.0,9/27/2018,42.2679571815,-71.8523638778
263,18.3,9.0,7.73,0.0,1.05,187.1,9/28/2018,42.2714940453,-71.8518143295
264,18.8,8.77,10.53,0.0,1.2,204.0,9/28/2018,42.2723793899,-71.852263281
265,18.6,8.25,11.81,0.0,1.0,2.19,9/28/2018,42.2714020743,-71.851990813
272,16.9,6.88,6.11,0.0,0.0,0.0,10/9/2018,42.2858652375,-71.8557332312
276,16.3,9.29,8.55,0.0,0.0,144.9,10/9/2018,42.2851886925,-71.857732902
277,16.3,9.3,8.55,0.0,0.0,144.9,10/9/2018,42.2848738847,-71.8579169122
278,16.3,7.05,8.2,0.0,0.0,289.0,10/9/2018,42.2847096663,-71.8569919418
279,16.4,7.2,6.43,0.0,0.0,0.0,10/9/2018,42.286575017,-71.8586425905
280,16.4,7.2,6.51,0.0,0.0,0.0,10/9/2018,42.2865304085,-71.8586061
281,16.2,9.0,9.02,0.0,0.0,71.2,10/9/2018,42.2855932031,-71.8568474379
282,16.2,9.0,9.02,0.0,0.0,71.2,10/9/2018,42.2850516641,-71.8575518849
284,16.4,7.57,10.24,0.0,0.0,432.0,10/9/2018,42.2867537189,-71.8567564942
285,16.6,7.03,6.34,0.0,0.0,0.0,10/9/2018,42.2854945913,-71.8574106839
286,16.3,7.0,9.09,0.0,0.0,149.5,10/9/2018,42.2856174685,-71.8568739243
314,15.8,4.0,4.26,6.4,0.0,0.0,4/22/2019,42.2707693211,-71.8534721154
315,16.0,4.56,10.2,35.0,0.0,0.0,4/22/2019,42.270730789,-71.8523858342
316,16.1,10.0,10.52,10.75,0.0,0.0,4/22/2019,42.2706671401,-71.8522491498
317,15.5,3.7,10.15,11.9,0.0,0.0,4/22/2019,42.2705024779,-71.852401867
318,16.8,5.4,9.41,9.9,0.0,0.0,4/22/2019,42.2700154143,-71.8510080211
332,24.9,7.88,6.22,0.0,0.0,0.0,7/24/2019,42.2705233748,-71.8500199675
333,21.4,6.5,3.82,0.0,0.0,0.0,7/24/2019,42.2714317082,-71.8518049669
334,18.6,6.6,10.2,0.0,0.0,0.0,7/24/2019,42.2688200412,-71.852619967
337,26.0,6.82,4.95,0.0,0.0,0.0,8/22/2019,42.2714306192,-71.8494782884
341,25.7,6.9,4.7,0.0,0.0,0.0,8/22/2019,42.271004163,-71.8502693501
345,25.6,6.8,4.3,0.0,0.0,0.0,8/22/2019,42.2698222152,-71.8500784624
571,26.4,6.84,1.07,0.0,0.0,0.0,8/17/2021,42.2706071832,-71.8519608943
576,25.8,7.4,6.11,0.0,0.0,0.0,8/17/2021,42.2709137274,-71.8518727542
577,25.2,7.6,10.54,0.0,0.0,0.0,8/17/2021,42.2708409752,-71.8516380472
578,25.3,7.6,10.54,0.0,0.0,0.0,8/17/2021,42.2708568666,-71.8517141498
579,26.3,8.94,1.1,0.0,0.0,0.0,8/17/2021,42.2707619895,-71.8520804148
