@relation machineLearning-weka.filters.unsupervised.attribute.Remove-R1-2-weka.filters.unsupervised.attribute.NumericCleaner-min0.001-min-defaultNaN-max40.0-max-defaultNaN-closeto0.0-closeto-default0.0-closeto-tolerance1.0E-6-R1-decimals-1-weka.filters.unsupervised.attribute.NumericCleaner-min0.001-min-defaultNaN-max40.0-max-defaultNaN-closeto0.0-closeto-default0.0-closeto-tolerance1.0E-6-R1-decimals-1-weka.filters.unsupervised.attribute.NumericCleaner-min0.001-min-defaultNaN-max14.0-max-defaultNaN-closeto0.0-closeto-default0.0-closeto-tolerance1.0E-6-R2-decimals-1-weka.filters.unsupervised.attribute.NumericCleaner-min0.001-min-defaultNaN-max12.0-max-defaultNaN-closeto0.0-closeto-default0.0-closeto-tolerance1.0E-6-R3-decimals-1-weka.filters.unsupervised.attribute.NumericCleaner-min0.001-min-defaultNaN-max35.0-max-defaultNaN-closeto0.0-closeto-default0.0-closeto-tolerance1.0E-6-R4-decimals-1-weka.filters.unsupervised.attribute.NumericCleaner-min0.001-min-defaultNaN-max260.0-max-defaultNaN-closeto0.0-closeto-default0.0-closeto-tolerance1.0E-6-R5-decimals-1-weka.filters.unsupervised.attribute.NumericCleaner-min0.001-min-defaultNaN-max10.0-max-defaultNaN-closeto0.0-closeto-default0.0-closeto-tolerance1.0E-6-R6-decimals-1-weka.filters.unsupervised.attribute.NumericCleaner-min0.001-min-defaultNaN-max80.0-max-defaultNaN-closeto0.0-closeto-default0.0-closeto-tolerance1.0E-6-R8-decimals-1-weka.filters.unsupervised.attribute.NumericCleaner-min0.001-min-defaultNaN-max80.0-max-defaultNaN-closeto0.0-closeto-default0.0-closeto-tolerance1.0E-6-R8-decimals-1-weka.filters.unsupervised.attribute.Remove-R8-weka.filters.unsupervised.attribute.Remove-R8-weka.filters.unsupervised.attribute.Remove-R8-weka.filters.unsupervised.attribute.Remove-R8

@attribute Temperature_C numeric
@attribute pH numeric
@attribute DO numeric
@attribute Depth_Ft numeric
@attribute Secchi_Depth numeric
@attribute Phosphorus numeric
@attribute Nitrates numeric
@attribute Latitude numeric
@attribute Longitude numeric
@attribute date {2017-09-13,2017-09-25,2017-09-26,2017-09-27,2017-10-12,2017-10-17,2017-11-15,2018-04-23,2018-04-24,2018-05-29,2018-09-27,2018-09-28,2018-10-09,2018-10-23,2019-04-22,2019-04-24,2019-07-24,2019-08-22,2019-09-30,2019-10-02,2019-10-08,2020-08-12,2020-08-14,2020-09-19,2020-10-20,2020-10-22,2020-11-03,2021-04-20,2021-06-10,2021-06-16,2021-06-24,2021-07-14,2021-08-17,2021-09-22}
@attribute monthNom {Sep,Oct,Nov,Apr,May,Jul,Aug,Jun}
@attribute month numeric
@attribute year numeric
@attribute days numeric
@attribute monthYear {Sep-17,Oct-17,Nov-17,Apr-18,May-18,Sep-18,Oct-18,Apr-19,Jul-19,Aug-19,Sep-19,Oct-19,Aug-20,Sep-20,Oct-20,Nov-20,Apr-21,Jun-21,Jul-21,Aug-21,Sep-21}

@data
24,?,9.28,?,?,?,0,42.269133,-71.852006,2017-09-13,Sep,9,17,13,Sep-17
25.1,7,10,?,?,?,0,42.271067,-71.849319,2017-09-13,Sep,9,17,13,Sep-17
24,?,9.35,?,?,?,0,42.267445,-71.853193,2017-09-13,Sep,9,17,13,Sep-17
24.1,?,9.74,?,?,?,0,42.268872,-71.851739,2017-09-13,Sep,9,17,13,Sep-17
24.3,?,9.6,?,?,?,0,42.268703,-71.851546,2017-09-13,Sep,9,17,13,Sep-17
23.3,?,9.06,?,?,?,0,42.266994,-71.852553,2017-09-13,Sep,9,17,13,Sep-17
25.1,?,9.8,?,?,?,0,42.268741,-71.851182,2017-09-13,Sep,9,17,13,Sep-17
24.2,?,8.8,?,?,?,0,42.268802,-71.851463,2017-09-13,Sep,9,17,13,Sep-17
22.9,?,8.74,?,?,?,0,42.267018,-71.853098,2017-09-13,Sep,9,17,13,Sep-17
23.5,?,9.7,?,?,?,0,42.268585,-71.852292,2017-09-13,Sep,9,17,13,Sep-17
21.5,?,9.2,?,?,?,0,42.268474,-71.852254,2017-09-13,Sep,9,17,13,Sep-17
24.2,?,8.3,?,?,?,0,42.269155,-71.853593,2017-09-13,Sep,9,17,13,Sep-17
23.1,?,10.3,?,?,?,0,42.268529,-71.852202,2017-09-13,Sep,9,17,13,Sep-17
22.5,9.8,9,?,?,?,0,42.268049,-71.853077,2017-09-13,Sep,9,17,13,Sep-17
22.8,?,9.43,?,?,?,0,42.268584,-71.85376,2017-09-13,Sep,9,17,13,Sep-17
22.6,?,10.1,?,?,?,0,42.268803,-71.852983,2017-09-13,Sep,9,17,13,Sep-17
22.4,?,10.1,?,?,?,0,42.269129,-71.85351,2017-09-13,Sep,9,17,13,Sep-17
25.3,10.28,9,?,?,?,0,42.270849,-71.853135,2017-09-13,Sep,9,17,13,Sep-17
22.6,?,9.9,?,?,?,0,42.269459,-71.853082,2017-09-13,Sep,9,17,13,Sep-17
22.5,?,9.7,?,?,?,0,42.270161,-71.85299,2017-09-13,Sep,9,17,13,Sep-17
22.2,?,10.2,?,?,?,0,42.270709,-71.853196,2017-09-13,Sep,9,17,13,Sep-17
28.5,?,?,?,?,?,0,42.271299,-71.851874,2017-09-25,Sep,9,17,25,Sep-17
30,?,7.6,?,?,?,0,42.268858,-71.852884,2017-09-25,Sep,9,17,25,Sep-17
28.4,?,?,?,?,?,0,42.271251,-71.852209,2017-09-25,Sep,9,17,25,Sep-17
29.6,?,?,?,?,?,0,42.271051,-71.852348,2017-09-25,Sep,9,17,25,Sep-17
28.8,?,?,?,?,?,0,42.270972,-71.852783,2017-09-25,Sep,9,17,25,Sep-17
28.6,?,?,?,?,?,0,42.270966,-71.853116,2017-09-25,Sep,9,17,25,Sep-17
29.1,?,?,?,?,?,0,42.270718,-71.853395,2017-09-25,Sep,9,17,25,Sep-17
29.8,?,?,?,?,?,0,42.270664,-71.853025,2017-09-25,Sep,9,17,25,Sep-17
28.6,?,?,?,?,?,0,42.270679,-71.852721,2017-09-25,Sep,9,17,25,Sep-17
27.9,8.43,?,?,?,?,0,42.268968,-71.85287,2017-09-25,Sep,9,17,25,Sep-17
27.3,?,?,?,?,?,0,42.269574,-71.852225,2017-09-25,Sep,9,17,25,Sep-17
29.3,?,?,?,?,?,0,42.270714,-71.852472,2017-09-25,Sep,9,17,25,Sep-17
27.8,?,8.1,?,?,?,0,42.269658,-71.852267,2017-09-25,Sep,9,17,25,Sep-17
27.5,?,?,?,?,?,0,42.269571,-71.852938,2017-09-25,Sep,9,17,25,Sep-17
28.4,?,?,?,?,?,0,42.27055,-71.852164,2017-09-25,Sep,9,17,25,Sep-17
29.8,7,7.99,3.28,?,?,0,42.269398,-71.852388,2017-09-25,Sep,9,17,25,Sep-17
27.5,?,?,?,?,?,0,42.268639,-71.853465,2017-09-25,Sep,9,17,25,Sep-17
28.5,?,7.87,?,?,?,0,42.27033,-71.852382,2017-09-25,Sep,9,17,25,Sep-17
28.5,?,7.88,?,?,?,0,42.270302,-71.852417,2017-09-25,Sep,9,17,25,Sep-17
26.8,8.36,?,16.4,?,?,0,42.27028,-71.851432,2017-09-25,Sep,9,17,25,Sep-17
24.8,8.64,?,16.4,?,?,0,42.271498,-71.85048,2017-09-25,Sep,9,17,25,Sep-17
25.3,?,?,?,89,?,0,42.269696,-71.850006,2017-09-26,Sep,9,17,26,Sep-17
25.3,?,?,?,98,?,0,42.270179,-71.850008,2017-09-26,Sep,9,17,26,Sep-17
25.6,?,?,?,89,?,0,42.270483,-71.849976,2017-09-26,Sep,9,17,26,Sep-17
25.5,?,?,?,96,?,0,42.271599,-71.849767,2017-09-26,Sep,9,17,26,Sep-17
25.5,?,?,?,89,?,0,42.271122,-71.850064,2017-09-26,Sep,9,17,26,Sep-17
27.8,9.37,?,?,?,?,0,42.269928,-71.85063,2017-09-26,Sep,9,17,26,Sep-17
25.2,?,?,?,91,?,0,42.270413,-71.850181,2017-09-26,Sep,9,17,26,Sep-17
17,?,8.33,1,?,?,0,42.271274,-71.851951,2017-09-26,Sep,9,17,26,Sep-17
18,?,8.32,1.03,?,?,0,42.271279,-71.852085,2017-09-26,Sep,9,17,26,Sep-17
19,?,9.06,0.92,?,?,0,42.271302,-71.852134,2017-09-26,Sep,9,17,26,Sep-17
20,?,8.3,?,0.7,?,0,42.271319,-71.851938,2017-09-26,Sep,9,17,26,Sep-17
28,?,7.7,?,?,?,0,42.268754,-71.852147,2017-09-26,Sep,9,17,26,Sep-17
25.3,?,?,?,?,?,0,42.271762,-71.851397,2017-09-26,Sep,9,17,26,Sep-17
27.7,?,7.3,?,?,?,0,42.269412,-71.849618,2017-09-26,Sep,9,17,26,Sep-17
27.7,?,7.74,?,?,?,0,42.267876,-71.85286,2017-09-26,Sep,9,17,26,Sep-17
25.1,?,?,?,?,?,0,42.271941,-71.851142,2017-09-26,Sep,9,17,26,Sep-17
26.3,?,8.35,?,?,?,0,42.270169,-71.84991,2017-09-26,Sep,9,17,26,Sep-17
25.9,?,8.6,?,?,?,0,42.270933,-71.849729,2017-09-26,Sep,9,17,26,Sep-17
27.4,?,7.74,?,?,?,0,42.267341,-71.852914,2017-09-26,Sep,9,17,26,Sep-17
24.1,?,?,?,?,?,0,42.271812,-71.851013,2017-09-26,Sep,9,17,26,Sep-17
25.6,?,8.3,?,?,?,0,42.271144,-71.850677,2017-09-26,Sep,9,17,26,Sep-17
28.9,?,7.39,?,?,?,0,42.267193,-71.852854,2017-09-26,Sep,9,17,26,Sep-17
25.6,?,8.45,?,?,?,0,42.271119,-71.851876,2017-09-26,Sep,9,17,26,Sep-17
25.5,?,?,?,?,?,0,42.272128,-71.851018,2017-09-26,Sep,9,17,26,Sep-17
28.3,?,7.48,?,?,?,0,42.268068,-71.853448,2017-09-26,Sep,9,17,26,Sep-17
26.6,?,?,?,?,?,0,42.270063,-71.852849,2017-09-26,Sep,9,17,26,Sep-17
25.5,?,8.2,?,?,?,0,42.271016,-71.852837,2017-09-26,Sep,9,17,26,Sep-17
26.4,?,?,?,?,?,0,42.272194,-71.851029,2017-09-26,Sep,9,17,26,Sep-17
27.3,?,7.75,?,?,?,0,42.269108,-71.853563,2017-09-26,Sep,9,17,26,Sep-17
26.5,?,7.72,?,?,?,0,42.269665,-71.852997,2017-09-26,Sep,9,17,26,Sep-17
26.6,?,7.93,?,?,?,0,42.268855,-71.853436,2017-09-26,Sep,9,17,26,Sep-17
25.8,?,?,?,?,?,0,42.269136,-71.853098,2017-09-26,Sep,9,17,26,Sep-17
26,?,?,?,?,?,0,42.271507,-71.851568,2017-09-26,Sep,9,17,26,Sep-17
25.6,?,7.7,?,?,?,0,42.270449,-71.853227,2017-09-26,Sep,9,17,26,Sep-17
26.3,?,7.83,?,?,?,0,42.268198,-71.853026,2017-09-26,Sep,9,17,26,Sep-17
25.8,?,?,?,?,?,0,42.269231,-71.852606,2017-09-26,Sep,9,17,26,Sep-17
26.3,?,7.83,?,?,?,0,42.267371,-71.853171,2017-09-26,Sep,9,17,26,Sep-17
26.3,?,7.83,?,?,?,0,42.266852,-71.852684,2017-09-26,Sep,9,17,26,Sep-17
25.5,?,?,?,?,?,0,42.267029,-71.852645,2017-09-26,Sep,9,17,26,Sep-17
27,?,?,?,?,?,0,42.271328,-71.852098,2017-09-26,Sep,9,17,26,Sep-17
27.5,?,?,?,?,?,0,42.271035,-71.852964,2017-09-26,Sep,9,17,26,Sep-17
25.3,?,?,?,?,?,0,42.266924,-71.853182,2017-09-26,Sep,9,17,26,Sep-17
26,?,8.1,?,?,?,0,42.267246,-71.852863,2017-09-26,Sep,9,17,26,Sep-17
25.5,?,7.28,?,?,?,0,42.269258,-71.852138,2017-09-26,Sep,9,17,26,Sep-17
27.5,?,?,?,?,?,0,42.27096,-71.853521,2017-09-26,Sep,9,17,26,Sep-17
25.4,?,7.73,?,?,?,0,42.268094,-71.852569,2017-09-26,Sep,9,17,26,Sep-17
26.2,?,?,?,?,?,0,42.268335,-71.852916,2017-09-26,Sep,9,17,26,Sep-17
26.9,?,8.21,?,?,?,0,42.268736,-71.851274,2017-09-26,Sep,9,17,26,Sep-17
27.7,?,?,?,?,?,0,42.270429,-71.852187,2017-09-26,Sep,9,17,26,Sep-17
27.7,?,9.4,?,?,?,0,42.269893,-71.849124,2017-09-26,Sep,9,17,26,Sep-17
26.4,?,7.76,?,?,?,0,42.269606,-71.851487,2017-09-26,Sep,9,17,26,Sep-17
25.5,?,?,?,?,?,0,42.270266,-71.851612,2017-09-26,Sep,9,17,26,Sep-17
27.3,?,?,?,?,?,0,42.270946,-71.852589,2017-09-26,Sep,9,17,26,Sep-17
26,?,7.87,?,?,?,0,42.269648,-71.850808,2017-09-26,Sep,9,17,26,Sep-17
27.4,?,10.02,?,?,?,0,42.2698,-71.850638,2017-09-26,Sep,9,17,26,Sep-17
29.3,?,?,?,?,?,0,42.271417,-71.852145,2017-09-26,Sep,9,17,26,Sep-17
25.9,?,7.93,?,?,?,0,42.269579,-71.850042,2017-09-26,Sep,9,17,26,Sep-17
25.8,?,?,?,?,?,0,42.270026,-71.851071,2017-09-26,Sep,9,17,26,Sep-17
27.2,?,?,?,?,?,0,42.27114,-71.851145,2017-09-26,Sep,9,17,26,Sep-17
27,?,?,?,?,?,0,42.271524,-71.849534,2017-09-26,Sep,9,17,26,Sep-17
28.4,7.44,?,?,?,?,0,42.269461,-71.849523,2017-09-27,Sep,9,17,27,Sep-17
26.5,?,?,?,?,?,0,42.269398,-71.851985,2017-09-27,Sep,9,17,27,Sep-17
27.5,7.76,?,?,?,?,0,42.270972,-71.851068,2017-09-27,Sep,9,17,27,Sep-17
26.8,8.42,?,?,?,?,0,42.270778,-71.851281,2017-09-27,Sep,9,17,27,Sep-17
27.3,?,?,?,?,?,0,42.269486,-71.853025,2017-09-27,Sep,9,17,27,Sep-17
26,?,?,?,?,?,0,42.269792,-71.850598,2017-09-27,Sep,9,17,27,Sep-17
28.5,?,?,?,?,?,0,42.269933,-71.850695,2017-09-27,Sep,9,17,27,Sep-17
27.1,?,?,?,?,?,0,42.269184,-71.852542,2017-09-27,Sep,9,17,27,Sep-17
26.1,6.3,?,?,?,?,0,42.270861,-71.850818,2017-09-27,Sep,9,17,27,Sep-17
26.5,?,?,?,?,?,0,42.270036,-71.850961,2017-09-27,Sep,9,17,27,Sep-17
25.4,?,?,?,?,?,0,42.27003,-71.85098,2017-09-27,Sep,9,17,27,Sep-17
25.2,8.8,?,?,?,?,0,42.269118,-71.849569,2017-09-27,Sep,9,17,27,Sep-17
25.7,?,?,?,?,?,0,42.270022,-71.851066,2017-09-27,Sep,9,17,27,Sep-17
25.4,9.04,?,?,?,?,0,42.269247,-71.852711,2017-09-27,Sep,9,17,27,Sep-17
25.8,9,?,?,?,?,0,42.271179,-71.850928,2017-09-27,Sep,9,17,27,Sep-17
26.9,8.01,8.98,16.4,?,?,0,42.271359,-71.850687,2017-09-27,Sep,9,17,27,Sep-17
27.4,7.86,?,?,?,?,0,42.270366,-71.851358,2017-09-27,Sep,9,17,27,Sep-17
26.1,7.4,?,?,?,?,0,42.271099,-71.85197,2017-09-27,Sep,9,17,27,Sep-17
28.2,7.83,?,?,?,?,0,42.269623,-71.850064,2017-09-27,Sep,9,17,27,Sep-17
26.6,?,?,?,?,?,0,42.268097,-71.852484,2017-09-27,Sep,9,17,27,Sep-17
26.2,9.2,?,?,?,?,0,42.271331,-71.850148,2017-09-27,Sep,9,17,27,Sep-17
25.1,9.23,?,?,?,?,0,42.269848,-71.853127,2017-09-27,Sep,9,17,27,Sep-17
25.3,9.1,?,?,?,?,0,42.271402,-71.848916,2017-09-27,Sep,9,17,27,Sep-17
27.7,?,?,?,?,?,0,42.267487,-71.853034,2017-09-27,Sep,9,17,27,Sep-17
25,8,?,?,?,?,0,42.269927,-71.852765,2017-09-27,Sep,9,17,27,Sep-17
25.7,8.3,9.55,?,?,?,0,42.271353,-71.849632,2017-09-27,Sep,9,17,27,Sep-17
24.8,9.32,?,?,?,?,0,42.26896,-71.853007,2017-09-27,Sep,9,17,27,Sep-17
25.2,8.4,?,?,?,?,0,42.269564,-71.852188,2017-09-27,Sep,9,17,27,Sep-17
25.9,8.9,?,?,?,?,0,42.27179,-71.849765,2017-09-27,Sep,9,17,27,Sep-17
27.3,2.2,?,?,?,?,0,42.268083,-71.852865,2017-09-27,Sep,9,17,27,Sep-17
25.6,7.1,8.22,13.2,?,?,0,42.271602,-71.849846,2017-09-27,Sep,9,17,27,Sep-17
26.1,8.8,?,?,?,?,0,42.26957,-71.851145,2017-09-27,Sep,9,17,27,Sep-17
25,7,7.47,?,?,?,0,42.268133,-71.852676,2017-09-27,Sep,9,17,27,Sep-17
27.1,1.9,?,?,?,?,0,42.268851,-71.852643,2017-09-27,Sep,9,17,27,Sep-17
24.8,8,8.53,?,?,?,0,42.268667,-71.851709,2017-09-27,Sep,9,17,27,Sep-17
25.6,8.34,9,9.8,?,?,0,42.270956,-71.849757,2017-09-27,Sep,9,17,27,Sep-17
28.5,2,?,?,?,?,0,42.269594,-71.852156,2017-09-27,Sep,9,17,27,Sep-17
25,8,9.08,?,?,?,0,42.269533,-71.851891,2017-09-27,Sep,9,17,27,Sep-17
25.7,8.5,9.03,13.2,?,?,0,42.270137,-71.850103,2017-09-27,Sep,9,17,27,Sep-17
25.5,9,9.93,?,?,?,0,42.269873,-71.851117,2017-09-27,Sep,9,17,27,Sep-17
28.7,2.5,?,?,?,?,0,42.270022,-71.85082,2017-09-27,Sep,9,17,27,Sep-17
26.4,7,9.43,?,?,?,0,42.269502,-71.850105,2017-09-27,Sep,9,17,27,Sep-17
17.5,8.2,?,?,?,?,0,42.27003,-71.850036,2017-10-12,Oct,10,17,12,Oct-17
17.3,7,?,?,?,?,0,42.270113,-71.850368,2017-10-12,Oct,10,17,12,Oct-17
17.4,8.1,?,?,?,?,0,42.270368,-71.850487,2017-10-12,Oct,10,17,12,Oct-17
17.2,?,?,?,?,?,0,42.271131,-71.852088,2017-10-12,Oct,10,17,12,Oct-17
17.7,6.7,?,?,?,?,0,42.270949,-71.850634,2017-10-12,Oct,10,17,12,Oct-17
17.1,7.9,?,?,?,?,0,42.269749,-71.851914,2017-10-12,Oct,10,17,12,Oct-17
16,?,?,?,?,?,0,42.271462,-71.851904,2017-10-12,Oct,10,17,12,Oct-17
17.2,8,?,?,?,?,0,42.269604,-71.850785,2017-10-12,Oct,10,17,12,Oct-17
17.6,?,6.5,?,?,?,0,42.270418,-71.852421,2017-10-12,Oct,10,17,12,Oct-17
17.4,6.7,?,?,?,?,0,42.269348,-71.852535,2017-10-12,Oct,10,17,12,Oct-17
16.5,?,?,?,?,?,0,42.271433,-71.852213,2017-10-12,Oct,10,17,12,Oct-17
17,8.1,?,?,?,?,0,42.269486,-71.849881,2017-10-12,Oct,10,17,12,Oct-17
16.5,?,?,?,?,?,0,42.271504,-71.852122,2017-10-12,Oct,10,17,12,Oct-17
16,?,6.55,?,?,?,0,42.270278,-71.852593,2017-10-12,Oct,10,17,12,Oct-17
16.9,6.8,?,?,?,?,0,42.269894,-71.85191,2017-10-12,Oct,10,17,12,Oct-17
17,?,6.58,?,?,?,0,42.270663,-71.852231,2017-10-12,Oct,10,17,12,Oct-17
14.7,?,?,?,?,?,0,42.268757,-71.852413,2017-10-17,Oct,10,17,17,Oct-17
14.5,?,?,?,?,?,0,42.270622,-71.850525,2017-10-17,Oct,10,17,17,Oct-17
15.5,7.1,?,?,?,?,0,42.27101,-71.85154,2017-10-17,Oct,10,17,17,Oct-17
14.9,7.3,?,?,?,?,0,42.271103,-71.851772,2017-10-17,Oct,10,17,17,Oct-17
13.2,?,?,?,?,?,0,42.266943,-71.852708,2017-10-17,Oct,10,17,17,Oct-17
15,7.3,?,?,?,?,0,42.271033,-71.852138,2017-10-17,Oct,10,17,17,Oct-17
14.7,7.8,?,?,?,?,0,42.270345,-71.850578,2017-10-17,Oct,10,17,17,Oct-17
14.5,7.4,?,?,?,?,0,42.270608,-71.852462,2017-10-17,Oct,10,17,17,Oct-17
14.6,7.4,?,?,?,?,0,42.270093,-71.852718,2017-10-17,Oct,10,17,17,Oct-17
14.6,?,?,?,?,?,0,42.269284,-71.853144,2017-10-17,Oct,10,17,17,Oct-17
14.8,?,?,?,?,?,0,42.269552,-71.851445,2017-10-17,Oct,10,17,17,Oct-17
8.8,5.3,?,?,?,?,0,42.269709,-71.849635,2017-11-15,Nov,11,17,15,Nov-17
7.1,6.66,?,?,?,?,0,42.269763,-71.849076,2017-11-15,Nov,11,17,15,Nov-17
7,7,?,?,?,?,0,42.270922,-71.852867,2017-11-15,Nov,11,17,15,Nov-17
7.1,7.2,?,?,?,?,0,42.271338,-71.852335,2017-11-15,Nov,11,17,15,Nov-17
7.4,4.2,?,?,?,?,0,42.269704,-71.849267,2017-11-15,Nov,11,17,15,Nov-17
18.8,7.7,9.6,?,?,?,0,42.270962,-71.852646,2017-11-15,Nov,11,17,15,Nov-17
11.1,8.8,6.33,?,?,?,0,42.268887,-71.852517,2017-11-15,Nov,11,17,15,Nov-17
9.1,7,?,?,?,?,0,42.268435,-71.853342,2017-11-15,Nov,11,17,15,Nov-17
7.5,6.04,?,?,?,?,0,42.269855,-71.84949,2017-11-15,Nov,11,17,15,Nov-17
10.7,7.9,10.41,?,?,?,0,42.27132,-71.852552,2017-11-15,Nov,11,17,15,Nov-17
9.1,7.6,6.4,?,?,?,0,42.268322,-71.852556,2017-11-15,Nov,11,17,15,Nov-17
6.4,7.1,?,?,?,?,0,42.267804,-71.853324,2017-11-15,Nov,11,17,15,Nov-17
15.2,?,?,?,?,?,0,42.267843,-71.853284,2018-04-23,Apr,4,18,23,Apr-18
13.8,7.24,?,?,?,?,0,42.271027,-71.851145,2018-04-23,Apr,4,18,23,Apr-18
21,7.3,?,?,?,?,0,42.269872,-71.849103,2018-04-23,Apr,4,18,23,Apr-18
15.9,7.22,?,?,?,?,0,42.270876,-71.849618,2018-04-23,Apr,4,18,23,Apr-18
14.6,7.8,?,?,?,?,0,42.271149,-71.851266,2018-04-23,Apr,4,18,23,Apr-18
15.5,8.3,8.4,?,?,?,0,42.270417,-71.852849,2018-04-23,Apr,4,18,23,Apr-18
13.5,8.3,8,?,?,?,0,42.270114,-71.852766,2018-04-23,Apr,4,18,23,Apr-18
14.9,7.3,?,?,?,?,0,42.271278,-71.849512,2018-04-23,Apr,4,18,23,Apr-18
14.5,6.98,?,?,?,?,0,42.27179,-71.851782,2018-04-23,Apr,4,18,23,Apr-18
17,?,?,?,?,?,0,42.268786,-71.851933,2018-04-23,Apr,4,18,23,Apr-18
12.3,8.4,8.97,?,?,?,0,42.270138,-71.851965,2018-04-23,Apr,4,18,23,Apr-18
20,7.5,?,?,?,?,0,42.269801,-71.849405,2018-04-23,Apr,4,18,23,Apr-18
16,?,?,?,?,?,0,42.269146,-71.852998,2018-04-23,Apr,4,18,23,Apr-18
15,7.2,?,?,?,?,0,42.271034,-71.850564,2018-04-23,Apr,4,18,23,Apr-18
19,7.4,5.02,?,?,?,0,42.269787,-71.848959,2018-04-23,Apr,4,18,23,Apr-18
14.3,7.3,?,?,?,?,0,42.270551,-71.850557,2018-04-23,Apr,4,18,23,Apr-18
16.4,?,7.38,?,?,?,0,42.268192,-71.85337,2018-04-24,Apr,4,18,24,Apr-18
14.5,?,8.42,?,?,?,0,42.26808,-71.852891,2018-04-24,Apr,4,18,24,Apr-18
14.7,?,9.02,?,?,?,0,42.267252,-71.852984,2018-04-24,Apr,4,18,24,Apr-18
15.6,?,8.2,?,?,?,0,42.26688,-71.852253,2018-04-24,Apr,4,18,24,Apr-18
15.1,?,8.76,?,?,?,0,42.266748,-71.852551,2018-04-24,Apr,4,18,24,Apr-18
20,?,?,?,?,?,0,42.270283,-71.849927,2018-04-24,Apr,4,18,24,Apr-18
14.6,?,?,?,?,?,0,42.271077,-71.849412,2018-04-24,Apr,4,18,24,Apr-18
19,?,7.6,?,?,?,0,42.271045,-71.851836,2018-04-24,Apr,4,18,24,Apr-18
14.1,?,?,?,?,?,0,42.271452,-71.849006,2018-04-24,Apr,4,18,24,Apr-18
13.1,?,8.66,?,?,?,0,42.267501,-71.853446,2018-04-24,Apr,4,18,24,Apr-18
17.5,?,8.6,?,?,?,0,42.27159,-71.851954,2018-04-24,Apr,4,18,24,Apr-18
15.2,?,?,?,?,?,0,42.271719,-71.84964,2018-04-24,Apr,4,18,24,Apr-18
13,7,?,?,?,?,0,42.270124,-71.85233,2018-04-24,Apr,4,18,24,Apr-18
16,?,?,?,?,?,0,42.272106,-71.850127,2018-04-24,Apr,4,18,24,Apr-18
16.2,?,?,?,?,?,0,42.26903,-71.852245,2018-04-24,Apr,4,18,24,Apr-18
16,?,?,?,?,?,0,42.270794,-71.852965,2018-04-24,Apr,4,18,24,Apr-18
15,?,8.98,?,?,?,0,42.269313,-71.852812,2018-04-24,Apr,4,18,24,Apr-18
17.3,?,?,?,?,?,0,42.271444,-71.849501,2018-04-24,Apr,4,18,24,Apr-18
12.5,6.9,?,?,?,?,0,42.270204,-71.852966,2018-04-24,Apr,4,18,24,Apr-18
16.4,?,?,?,?,?,0,42.268908,-71.851899,2018-04-24,Apr,4,18,24,Apr-18
15.4,?,?,?,?,?,0,42.271455,-71.8507,2018-04-24,Apr,4,18,24,Apr-18
12.1,6.9,?,?,?,?,0,42.270463,-71.852104,2018-04-24,Apr,4,18,24,Apr-18
15.7,?,?,?,?,?,0,42.268767,-71.851934,2018-04-24,Apr,4,18,24,Apr-18
16.9,?,7.3,?,?,?,0,42.271449,-71.850442,2018-04-24,Apr,4,18,24,Apr-18
15.6,?,8.65,?,?,?,0,42.268419,-71.853358,2018-04-24,Apr,4,18,24,Apr-18
13.54,?,12,?,?,?,0,42.268029,-71.853485,2018-04-24,Apr,4,18,24,Apr-18
28,?,9.07,?,?,?,0,42.268432,-71.852964,2018-05-29,May,5,18,29,May-18
24.6,7.65,?,?,?,?,0,42.269406,-71.852356,2018-05-29,May,5,18,29,May-18
27,6.9,?,?,?,?,0,42.271431,-71.852634,2018-05-29,May,5,18,29,May-18
25.3,7.42,?,?,?,?,0,42.267677,-71.85327,2018-05-29,May,5,18,29,May-18
24.5,7.4,?,?,?,?,0,42.2713,-71.852576,2018-05-29,May,5,18,29,May-18
26,9.8,5,?,?,?,0,42.270279,-71.849719,2018-05-29,May,5,18,29,May-18
26,7.6,?,?,?,?,0,42.26693,-71.852501,2018-05-29,May,5,18,29,May-18
26,9.1,5.46,?,?,?,0,42.270545,-71.849622,2018-05-29,May,5,18,29,May-18
24.5,7.6,?,?,?,?,0,42.271066,-71.851209,2018-05-29,May,5,18,29,May-18
25.8,8.5,5.9,?,?,?,0,42.270613,-71.849464,2018-05-29,May,5,18,29,May-18
28,?,?,?,?,?,0,42.267053,-71.852605,2018-05-29,May,5,18,29,May-18
23.7,7.6,?,?,?,?,0,42.269866,-71.851808,2018-05-29,May,5,18,29,May-18
23.7,7.7,?,?,?,?,0,42.269724,-71.851997,2018-05-29,May,5,18,29,May-18
27.3,8.5,0.01,?,?,?,0,42.269975,-71.850267,2018-05-29,May,5,18,29,May-18
24,?,?,?,?,?,0,42.269654,-71.851658,2018-05-29,May,5,18,29,May-18
23.6,7.7,?,?,?,?,0,42.269494,-71.85222,2018-05-29,May,5,18,29,May-18
24,7.7,?,?,?,?,0,42.269647,-71.851804,2018-05-29,May,5,18,29,May-18
25,8.2,5.74,?,?,?,0,42.271342,-71.850052,2018-05-29,May,5,18,29,May-18
24.3,7.5,0.06,?,?,?,0,42.269938,-71.851512,2018-05-29,May,5,18,29,May-18
24.7,7.7,?,?,?,?,0,42.26962,-71.851484,2018-05-29,May,5,18,29,May-18
24.8,7.8,?,?,?,?,0,42.269516,-71.850959,2018-05-29,May,5,18,29,May-18
25.8,7.6,0.07,?,?,?,0,42.270793,-71.851959,2018-05-29,May,5,18,29,May-18
24,8,6.1,?,?,?,0,42.270741,-71.851692,2018-05-29,May,5,18,29,May-18
23.5,8.1,6.3,?,?,?,0,42.270272,-71.851416,2018-05-29,May,5,18,29,May-18
24.6,7.5,0.04,?,?,?,0,42.269964,-71.852724,2018-05-29,May,5,18,29,May-18
24.3,7.5,0.05,?,?,?,0,42.26924,-71.852425,2018-05-29,May,5,18,29,May-18
24.2,8.2,7.7,?,?,?,0,42.26961,-71.850041,2018-05-29,May,5,18,29,May-18
23.6,7.5,0.05,?,?,?,0,42.268989,-71.853021,2018-05-29,May,5,18,29,May-18
23.4,7.5,0.05,?,?,?,0,42.268605,-71.853327,2018-05-29,May,5,18,29,May-18
24.5,7.6,0.04,?,?,?,0,42.268546,-71.851943,2018-05-29,May,5,18,29,May-18
27.3,?,9.33,?,?,?,0,42.27191,-71.851797,2018-05-29,May,5,18,29,May-18
19.2,6.3,7.6,?,88,?,0,42.268743,-71.851235,2018-09-27,Sep,9,18,27,Sep-18
20,8.4,8.25,26,?,?,0,42.270622,-71.852279,2018-09-27,Sep,9,18,27,Sep-18
19.2,7.6,7.91,?,98,?,0,42.268875,-71.851545,2018-09-27,Sep,9,18,27,Sep-18
19.2,9.1,8.59,19.7,?,?,0,42.270451,-71.852181,2018-09-27,Sep,9,18,27,Sep-18
18.7,6.28,7.86,?,103,?,0,42.268933,-71.852077,2018-09-27,Sep,9,18,27,Sep-18
18.9,8.73,7.24,26.2,?,?,0,42.26997,-71.851444,2018-09-27,Sep,9,18,27,Sep-18
19.2,7.33,7.61,3.5,1.2,?,0,42.267957,-71.852364,2018-09-27,Sep,9,18,27,Sep-18
18.3,9,7.73,?,1.05,?,0,42.271494,-71.851814,2018-09-28,Sep,9,18,28,Sep-18
18.8,8.77,10.53,?,1.2,?,0,42.272379,-71.852263,2018-09-28,Sep,9,18,28,Sep-18
18.6,8.25,11.81,?,1,?,0,42.271402,-71.851991,2018-09-28,Sep,9,18,28,Sep-18
19.1,7.3,?,?,?,?,0,42.285179,-71.858069,2018-10-09,Oct,10,18,9,Oct-18
18.3,7.33,?,?,?,?,0,42.285181,-71.858088,2018-10-09,Oct,10,18,9,Oct-18
17,7.5,?,?,?,?,0,42.286035,-71.856011,2018-10-09,Oct,10,18,9,Oct-18
16.7,6.5,?,?,?,?,0,42.286157,-71.856536,2018-10-09,Oct,10,18,9,Oct-18
18,7.4,?,?,?,?,0,42.285187,-71.857529,2018-10-09,Oct,10,18,9,Oct-18
15,6.98,?,?,?,?,0,42.285915,-71.855688,2018-10-09,Oct,10,18,9,Oct-18
16.9,6.88,6.11,?,?,?,0,42.285865,-71.855733,2018-10-09,Oct,10,18,9,Oct-18
17.5,7.38,?,?,?,?,0,42.28525,-71.857503,2018-10-09,Oct,10,18,9,Oct-18
16.5,?,8.65,?,?,?,0,42.286553,-71.856825,2018-10-09,Oct,10,18,9,Oct-18
17,7.36,?,?,?,?,0,42.285254,-71.856937,2018-10-09,Oct,10,18,9,Oct-18
16.3,9.29,8.55,?,?,?,0,42.285189,-71.857733,2018-10-09,Oct,10,18,9,Oct-18
16.3,9.3,8.55,?,?,?,0,42.284874,-71.857917,2018-10-09,Oct,10,18,9,Oct-18
16.3,7.05,8.2,?,?,?,0,42.28471,-71.856992,2018-10-09,Oct,10,18,9,Oct-18
16.4,7.2,6.43,?,?,?,0,42.286575,-71.858643,2018-10-09,Oct,10,18,9,Oct-18
16.4,7.2,6.51,?,?,?,0,42.28653,-71.858606,2018-10-09,Oct,10,18,9,Oct-18
16.2,9,9.02,?,?,?,0,42.285593,-71.856847,2018-10-09,Oct,10,18,9,Oct-18
16.2,9,9.02,?,?,?,0,42.285052,-71.857552,2018-10-09,Oct,10,18,9,Oct-18
17.6,7.31,?,?,?,?,0,42.286093,-71.856467,2018-10-09,Oct,10,18,9,Oct-18
16.4,7.57,10.24,?,?,?,0,42.286754,-71.856756,2018-10-09,Oct,10,18,9,Oct-18
16.6,7.03,6.34,?,?,?,0,42.285495,-71.857411,2018-10-09,Oct,10,18,9,Oct-18
16.3,7,9.09,?,?,?,0,42.285617,-71.856874,2018-10-09,Oct,10,18,9,Oct-18
16.6,7.38,?,?,?,?,0,42.286237,-71.856648,2018-10-09,Oct,10,18,9,Oct-18
9.9,7.39,?,?,?,?,0,42.284964,-71.858249,2018-10-23,Oct,10,18,23,Oct-18
8.7,7.28,?,?,?,?,0,42.285597,-71.858389,2018-10-23,Oct,10,18,23,Oct-18
10.4,?,4.36,?,?,?,0,42.284877,-71.859066,2018-10-23,Oct,10,18,23,Oct-18
8.1,7.38,?,?,?,?,0,42.286204,-71.858517,2018-10-23,Oct,10,18,23,Oct-18
8.1,7.54,?,?,?,?,0,42.286695,-71.858527,2018-10-23,Oct,10,18,23,Oct-18
8.5,?,7.34,5,?,?,0,42.284851,-71.858167,2018-10-23,Oct,10,18,23,Oct-18
10.2,?,2.83,?,?,?,0,42.284494,-71.858604,2018-10-23,Oct,10,18,23,Oct-18
11.4,?,3.4,?,?,?,0,42.285276,-71.859356,2018-10-23,Oct,10,18,23,Oct-18
8,?,8.16,6,?,?,0,42.284686,-71.85828,2018-10-23,Oct,10,18,23,Oct-18
25,7.7,?,?,?,?,0,42.285624,-71.859032,2018-10-23,Oct,10,18,23,Oct-18
8.2,?,?,7,?,?,0,42.284405,-71.859551,2018-10-23,Oct,10,18,23,Oct-18
7.9,9,?,?,?,?,0,42.28562,-71.859276,2018-10-23,Oct,10,18,23,Oct-18
7.9,?,8.54,8,?,?,0,42.284817,-71.859449,2018-10-23,Oct,10,18,23,Oct-18
8.3,8.58,?,?,?,?,0,42.284935,-71.858268,2018-10-23,Oct,10,18,23,Oct-18
19,5,?,?,?,?,0,42.269513,-71.850767,2019-04-22,Apr,4,19,22,Apr-19
18.6,?,11.28,?,?,?,0,42.269876,-71.850263,2019-04-22,Apr,4,19,22,Apr-19
19,5,?,?,?,?,0,42.269699,-71.851072,2019-04-22,Apr,4,19,22,Apr-19
16,10,?,?,134,?,0,42.269268,-71.849636,2019-04-22,Apr,4,19,22,Apr-19
17,4,?,?,?,?,0,42.270114,-71.851572,2019-04-22,Apr,4,19,22,Apr-19
17.4,?,11.68,?,?,?,0,42.27014,-71.850962,2019-04-22,Apr,4,19,22,Apr-19
16,3,?,?,?,?,0,42.27071,-71.852297,2019-04-22,Apr,4,19,22,Apr-19
15.5,6.2,?,?,250,?,0,42.269071,-71.852947,2019-04-22,Apr,4,19,22,Apr-19
16.3,12.05,?,?,?,?,0,42.270663,-71.851986,2019-04-22,Apr,4,19,22,Apr-19
15.8,12.26,?,?,?,?,0,42.27033,-71.852265,2019-04-22,Apr,4,19,22,Apr-19
15.4,3.9,?,?,?,?,0,42.269354,-71.852055,2019-04-22,Apr,4,19,22,Apr-19
15.5,12.4,?,?,?,?,0,42.269667,-71.85203,2019-04-22,Apr,4,19,22,Apr-19
15.8,4,4.26,6.4,?,?,0,42.270769,-71.853472,2019-04-22,Apr,4,19,22,Apr-19
16,4.56,10.2,35,?,?,0,42.270731,-71.852386,2019-04-22,Apr,4,19,22,Apr-19
16.1,10,10.52,10.75,?,?,0,42.270667,-71.852249,2019-04-22,Apr,4,19,22,Apr-19
15.5,3.7,10.15,11.9,?,?,0,42.270502,-71.852402,2019-04-22,Apr,4,19,22,Apr-19
16.8,5.4,9.41,9.9,?,?,0,42.270015,-71.851008,2019-04-22,Apr,4,19,22,Apr-19
18.2,10.3,?,?,?,?,0,42.26978,-71.849085,2019-04-24,Apr,4,19,24,Apr-19
17,?,3,?,?,?,0,42.269697,-71.849032,2019-04-24,Apr,4,19,24,Apr-19
16.4,?,12,?,?,?,0,42.270442,-71.850309,2019-04-24,Apr,4,19,24,Apr-19
15.9,10,?,?,?,?,0,42.270379,-71.849906,2019-04-24,Apr,4,19,24,Apr-19
16.2,6.65,?,?,?,?,0,42.268265,-71.852637,2019-04-24,Apr,4,19,24,Apr-19
15.7,6.82,?,?,?,?,0,42.268145,-71.852934,2019-04-24,Apr,4,19,24,Apr-19
16.4,?,?,?,?,?,0,42.2711,-71.850899,2019-04-24,Apr,4,19,24,Apr-19
15.6,6.89,?,?,?,?,0,42.267657,-71.853029,2019-04-24,Apr,4,19,24,Apr-19
16,?,?,?,?,?,0,42.270608,-71.851357,2019-04-24,Apr,4,19,24,Apr-19
15.8,?,?,?,?,?,0,42.27083,-71.852218,2019-04-24,Apr,4,19,24,Apr-19
15.5,?,?,?,?,?,0,42.271657,-71.851844,2019-04-24,Apr,4,19,24,Apr-19
15.4,?,?,?,?,?,0,42.272005,-71.851419,2019-04-24,Apr,4,19,24,Apr-19
16,?,?,?,?,?,0,42.272518,-71.851528,2019-04-24,Apr,4,19,24,Apr-19
24.9,7.88,6.22,?,?,?,0,42.270523,-71.85002,2019-07-24,Jul,7,19,24,Jul-19
21.4,6.5,3.82,?,?,?,0,42.271432,-71.851805,2019-07-24,Jul,7,19,24,Jul-19
18.6,6.6,10.2,?,?,?,0,42.26882,-71.85262,2019-07-24,Jul,7,19,24,Jul-19
26.2,6.94,?,?,?,?,0,42.270924,-71.849716,2019-08-22,Aug,8,19,22,Aug-19
25.9,6.61,?,?,?,?,0,42.271061,-71.851948,2019-08-22,Aug,8,19,22,Aug-19
26,6.82,4.95,?,?,?,0,42.271431,-71.849478,2019-08-22,Aug,8,19,22,Aug-19
25.7,6.43,?,?,?,?,0,42.27112,-71.852215,2019-08-22,Aug,8,19,22,Aug-19
25.8,6.96,?,?,?,?,0,42.270101,-71.852074,2019-08-22,Aug,8,19,22,Aug-19
25,?,?,?,?,?,0,42.270119,-71.851901,2019-08-22,Aug,8,19,22,Aug-19
25.7,6.9,4.7,?,?,?,0,42.271004,-71.850269,2019-08-22,Aug,8,19,22,Aug-19
25,0.99,?,?,?,?,0,42.271378,-71.851914,2019-08-22,Aug,8,19,22,Aug-19
24.9,1.46,?,?,?,?,0,42.271358,-71.851977,2019-08-22,Aug,8,19,22,Aug-19
26.1,6.92,?,?,?,?,0,42.268116,-71.853098,2019-08-22,Aug,8,19,22,Aug-19
25.6,6.8,4.3,?,?,?,0,42.269822,-71.850078,2019-08-22,Aug,8,19,22,Aug-19
24.6,2.33,?,?,?,?,0,42.27154,-71.851961,2019-08-22,Aug,8,19,22,Aug-19
25,?,?,?,?,?,0,42.268043,-71.8531,2019-08-22,Aug,8,19,22,Aug-19
24.7,2.12,?,?,?,?,0,42.271438,-71.851848,2019-08-22,Aug,8,19,22,Aug-19
24.5,2.59,?,?,?,?,0,42.271603,-71.851957,2019-08-22,Aug,8,19,22,Aug-19
26,6.8,?,?,?,?,0,42.270138,-71.850879,2019-08-22,Aug,8,19,22,Aug-19
26.8,6.86,?,?,?,?,0,42.266851,-71.853454,2019-08-22,Aug,8,19,22,Aug-19
25,?,?,?,?,?,0,42.266856,-71.85345,2019-08-22,Aug,8,19,22,Aug-19
24.6,3.55,?,?,?,?,0,42.271697,-71.851961,2019-08-22,Aug,8,19,22,Aug-19
26,6.85,?,?,?,?,0,42.270525,-71.851319,2019-08-22,Aug,8,19,22,Aug-19
25,4.1,?,?,?,?,0,42.271855,-71.851888,2019-08-22,Aug,8,19,22,Aug-19
28.5,6.97,?,?,?,?,0,42.270674,-71.852949,2019-08-22,Aug,8,19,22,Aug-19
25,?,?,?,?,?,0,42.270542,-71.85233,2019-08-22,Aug,8,19,22,Aug-19
27.3,2.8,?,?,?,?,0,42.271988,-71.851963,2019-08-22,Aug,8,19,22,Aug-19
26.8,6.88,?,?,?,?,0,42.269641,-71.852111,2019-08-22,Aug,8,19,22,Aug-19
26.1,6.8,?,?,?,?,0,42.270938,-71.850146,2019-08-22,Aug,8,19,22,Aug-19
25,?,?,?,?,?,0,42.271036,-71.849952,2019-08-22,Aug,8,19,22,Aug-19
20,7.52,?,?,?,?,0,42.269738,-71.849043,2019-09-30,Sep,9,19,30,Sep-19
20.9,7.4,?,?,?,?,0,42.270626,-71.851975,2019-09-30,Sep,9,19,30,Sep-19
20.8,?,?,?,?,?,0,42.267726,-71.853175,2019-09-30,Sep,9,19,30,Sep-19
20.8,7.01,?,?,?,?,0,42.267726,-71.853175,2019-09-30,Sep,9,19,30,Sep-19
19.7,7.23,?,?,?,?,0,42.269855,-71.849285,2019-09-30,Sep,9,19,30,Sep-19
20.5,7.1,?,?,?,?,0,42.267491,-71.853121,2019-09-30,Sep,9,19,30,Sep-19
22.2,7.24,?,?,?,?,0,42.271469,-71.850573,2019-09-30,Sep,9,19,30,Sep-19
20.1,7.05,?,?,?,?,0,42.267193,-71.852781,2019-09-30,Sep,9,19,30,Sep-19
19.3,7.25,?,?,?,?,0,42.269635,-71.84978,2019-09-30,Sep,9,19,30,Sep-19
20.6,6.82,?,?,?,?,0,42.266898,-71.852438,2019-09-30,Sep,9,19,30,Sep-19
19.4,7.22,?,?,?,?,0,42.269546,-71.849419,2019-09-30,Sep,9,19,30,Sep-19
20.5,6.85,?,?,?,?,0,42.266921,-71.852414,2019-09-30,Sep,9,19,30,Sep-19
20.1,1.8,?,?,?,?,0,42.267032,-71.853023,2019-09-30,Sep,9,19,30,Sep-19
20.3,7.18,?,?,?,?,0,42.269597,-71.850137,2019-09-30,Sep,9,19,30,Sep-19
20.9,7.2,?,?,?,?,0,42.269906,-71.851319,2019-09-30,Sep,9,19,30,Sep-19
19.6,7.5,?,?,?,?,0,42.269771,-71.850398,2019-09-30,Sep,9,19,30,Sep-19
21.5,6.65,?,?,?,?,0,42.267413,-71.853086,2019-10-02,Oct,10,19,2,Oct-19
20.3,6.71,?,?,?,?,0,42.267081,-71.85265,2019-10-02,Oct,10,19,2,Oct-19
21.2,7,?,?,?,?,0,42.270262,-71.850944,2019-10-02,Oct,10,19,2,Oct-19
21,?,?,?,?,?,0,42.271102,-71.850021,2019-10-02,Oct,10,19,2,Oct-19
19.6,?,?,?,?,?,0,42.269773,-71.85258,2019-10-02,Oct,10,19,2,Oct-19
20.5,6.85,?,?,?,?,0,42.267036,-71.853343,2019-10-02,Oct,10,19,2,Oct-19
19.4,?,?,?,?,?,0,42.27035,-71.852954,2019-10-02,Oct,10,19,2,Oct-19
21,?,?,?,?,?,0,42.268588,-71.852597,2019-10-02,Oct,10,19,2,Oct-19
20.3,6.9,?,?,?,?,0,42.27055,-71.851085,2019-10-02,Oct,10,19,2,Oct-19
20.6,?,?,?,?,?,0,42.271246,-71.849533,2019-10-02,Oct,10,19,2,Oct-19
19.8,?,?,?,?,?,0,42.270386,-71.852389,2019-10-02,Oct,10,19,2,Oct-19
21.2,6.7,?,?,?,?,0,42.270404,-71.849804,2019-10-02,Oct,10,19,2,Oct-19
19.4,?,?,?,?,?,0,42.270385,-71.852016,2019-10-02,Oct,10,19,2,Oct-19
22,?,?,?,?,?,0,42.271122,-71.849902,2019-10-02,Oct,10,19,2,Oct-19
22,?,?,?,?,?,0,42.267517,-71.853302,2019-10-02,Oct,10,19,2,Oct-19
20.8,6.8,?,?,?,?,0,42.270491,-71.850277,2019-10-02,Oct,10,19,2,Oct-19
21.2,?,?,?,?,?,0,42.270796,-71.849687,2019-10-02,Oct,10,19,2,Oct-19
19.8,?,?,?,?,?,0,42.270591,-71.851778,2019-10-02,Oct,10,19,2,Oct-19
21.2,?,?,?,?,?,0,42.270772,-71.849638,2019-10-02,Oct,10,19,2,Oct-19
21,?,?,?,?,?,0,42.268665,-71.851872,2019-10-02,Oct,10,19,2,Oct-19
20.8,7,?,?,?,?,0,42.270681,-71.850606,2019-10-02,Oct,10,19,2,Oct-19
21.6,?,?,?,?,?,0,42.270689,-71.849806,2019-10-02,Oct,10,19,2,Oct-19
21,?,?,?,?,?,0,42.270844,-71.849646,2019-10-02,Oct,10,19,2,Oct-19
21.3,?,?,?,?,?,0,42.271032,-71.849882,2019-10-02,Oct,10,19,2,Oct-19
21,?,?,?,?,?,0,42.269969,-71.851318,2019-10-02,Oct,10,19,2,Oct-19
21.1,6.85,?,?,?,?,0,42.270986,-71.851256,2019-10-02,Oct,10,19,2,Oct-19
15.8,6.93,?,?,?,?,0,42.270059,-71.850636,2019-10-08,Oct,10,19,8,Oct-19
15.4,7.14,?,?,?,?,0,42.270319,-71.850586,2019-10-08,Oct,10,19,8,Oct-19
14.7,7.27,?,?,?,?,0,42.270754,-71.851254,2019-10-08,Oct,10,19,8,Oct-19
14.8,7.23,?,?,?,?,0,42.270408,-71.850206,2019-10-08,Oct,10,19,8,Oct-19
14.6,7.3,?,?,?,?,0,42.271216,-71.851103,2019-10-08,Oct,10,19,8,Oct-19
16.1,7.3,?,?,?,?,0,42.269764,-71.849311,2019-10-08,Oct,10,19,8,Oct-19
15.2,?,?,?,?,?,0,42.271139,-71.84975,2019-10-08,Oct,10,19,8,Oct-19
15.1,6.8,?,?,?,?,0,42.270834,-71.85108,2019-10-08,Oct,10,19,8,Oct-19
15,7,?,?,?,?,0,42.268367,-71.852305,2019-10-08,Oct,10,19,8,Oct-19
14.8,?,?,?,?,?,0,42.271219,-71.849942,2019-10-08,Oct,10,19,8,Oct-19
14.5,7,?,?,?,?,0,42.267902,-71.852847,2019-10-08,Oct,10,19,8,Oct-19
14.4,?,?,?,?,?,0,42.271304,-71.850555,2019-10-08,Oct,10,19,8,Oct-19
15.5,7.19,?,1,?,?,0,42.269552,-71.852705,2019-10-08,Oct,10,19,8,Oct-19
14.6,?,?,?,?,?,0,42.271345,-71.849921,2019-10-08,Oct,10,19,8,Oct-19
15.2,7.18,?,1,?,?,0,42.268789,-71.851929,2019-10-08,Oct,10,19,8,Oct-19
14.5,?,?,?,?,?,0,42.271369,-71.849311,2019-10-08,Oct,10,19,8,Oct-19
14.4,?,?,?,?,?,0,42.271179,-71.849331,2019-10-08,Oct,10,19,8,Oct-19
15.5,7,?,?,?,?,0,42.267486,-71.853093,2019-10-08,Oct,10,19,8,Oct-19
14.9,?,?,?,?,?,0,42.267492,-71.853344,2019-10-08,Oct,10,19,8,Oct-19
15.5,7.16,?,?,?,?,0,42.270605,-71.8524,2019-10-08,Oct,10,19,8,Oct-19
14.8,?,?,?,?,?,0,42.268116,-71.852606,2019-10-08,Oct,10,19,8,Oct-19
28.8,8.27,?,?,?,?,0,42.269758,-71.851156,2020-08-12,Aug,8,20,12,Aug-20
29.1,8.03,?,?,?,?,0,42.270723,-71.850751,2020-08-12,Aug,8,20,12,Aug-20
29.8,6.81,?,?,?,?,0,42.269873,-71.8501,2020-08-12,Aug,8,20,12,Aug-20
29.7,7.81,?,?,?,?,0,42.269619,-71.850349,2020-08-12,Aug,8,20,12,Aug-20
29.4,8.09,?,?,?,?,0,42.269732,-71.852131,2020-08-12,Aug,8,20,12,Aug-20
29.3,8.03,?,?,?,?,0,42.270084,-71.850238,2020-08-12,Aug,8,20,12,Aug-20
29.2,8.01,?,?,?,?,0,42.270194,-71.85029,2020-08-12,Aug,8,20,12,Aug-20
2.9,8.21,?,?,?,?,0,42.269014,-71.851984,2020-08-12,Aug,8,20,12,Aug-20
29.2,8.08,?,?,?,?,0,42.27051,-71.850387,2020-08-12,Aug,8,20,12,Aug-20
29.3,7.97,?,?,?,?,0,42.269717,-71.850192,2020-08-12,Aug,8,20,12,Aug-20
29.2,8.12,?,?,?,?,0,42.270035,-71.851397,2020-08-12,Aug,8,20,12,Aug-20
29.5,?,?,?,?,?,0,42.269504,-71.849415,2020-08-12,Aug,8,20,12,Aug-20
?,?,?,?,?,?,0,42.269361,-71.852827,2020-08-14,Aug,8,20,14,Aug-20
17.8,7.9,?,?,?,?,0,42.27027,-71.850236,2020-09-19,Sep,9,20,19,Sep-20
18.1,7.38,?,?,?,?,0,42.26999,-71.850738,2020-09-19,Sep,9,20,19,Sep-20
18.6,7.31,?,?,?,?,0,42.270517,-71.851605,2020-09-19,Sep,9,20,19,Sep-20
19.1,7.23,?,?,?,?,0,42.271102,-71.849911,2020-09-19,Sep,9,20,19,Sep-20
18.8,6.65,?,?,?,?,0,42.27081,-71.851825,2020-09-19,Sep,9,20,19,Sep-20
18.6,7.23,?,?,?,?,0,42.270887,-71.85189,2020-09-19,Sep,9,20,19,Sep-20
18.8,6.55,?,?,?,?,0,42.270896,-71.852836,2020-09-19,Sep,9,20,19,Sep-20
18.7,6.62,?,?,?,?,0,42.271127,-71.853168,2020-09-19,Sep,9,20,19,Sep-20
18.5,7.15,?,?,?,?,0,42.270807,-71.852,2020-09-19,Sep,9,20,19,Sep-20
18.5,6.19,?,?,?,?,0,42.270447,-71.852676,2020-09-19,Sep,9,20,19,Sep-20
18,6.21,?,?,?,?,0,42.269887,-71.852468,2020-09-19,Sep,9,20,19,Sep-20
18.5,7.35,?,?,?,?,0,42.268022,-71.853598,2020-09-19,Sep,9,20,19,Sep-20
17.4,6.01,?,?,?,?,0,42.269646,-71.852279,2020-09-19,Sep,9,20,19,Sep-20
18.2,7.27,?,?,?,?,0,42.271066,-71.852091,2020-09-19,Sep,9,20,19,Sep-20
18.5,5.8,?,?,?,?,0,42.268818,-71.85201,2020-09-19,Sep,9,20,19,Sep-20
18,7.2,?,?,?,?,0,42.268481,-71.852834,2020-09-19,Sep,9,20,19,Sep-20
18,7.24,?,?,?,?,0,42.269873,-71.850359,2020-09-19,Sep,9,20,19,Sep-20
17.9,7.23,?,?,?,?,0,42.268191,-71.853208,2020-09-19,Sep,9,20,19,Sep-20
19.6,7.33,?,?,?,?,0,42.268358,-71.85357,2020-09-19,Sep,9,20,19,Sep-20
18,7.23,?,?,?,?,0,42.269379,-71.85255,2020-09-19,Sep,9,20,19,Sep-20
17.9,6.57,?,?,?,?,0,42.267863,-71.852974,2020-09-19,Sep,9,20,19,Sep-20
18.6,5.82,?,?,?,?,0,42.267713,-71.852725,2020-09-19,Sep,9,20,19,Sep-20
18.4,7.18,?,?,?,?,0,42.26942,-71.853606,2020-09-19,Sep,9,20,19,Sep-20
18.7,5.46,?,?,?,?,0,42.268129,-71.852653,2020-09-19,Sep,9,20,19,Sep-20
18.8,5.39,?,?,?,?,0,42.268292,-71.85272,2020-09-19,Sep,9,20,19,Sep-20
13.4,7.16,?,?,?,?,0,42.269974,-71.852635,2020-10-20,Oct,10,20,20,Oct-20
14,6.7,?,?,?,?,0,42.268976,-71.852407,2020-10-20,Oct,10,20,20,Oct-20
12.9,7,?,?,?,?,0,42.269544,-71.849396,2020-10-20,Oct,10,20,20,Oct-20
14.6,7.21,?,?,?,?,0,42.270126,-71.85287,2020-10-20,Oct,10,20,20,Oct-20
13.6,6.33,?,?,?,?,0,42.268638,-71.853989,2020-10-20,Oct,10,20,20,Oct-20
22.8,?,11.75,?,?,?,0,42.270974,-71.853018,2020-10-20,Oct,10,20,20,Oct-20
14,7.14,?,?,?,?,0,42.270338,-71.852408,2020-10-20,Oct,10,20,20,Oct-20
13.6,6.24,?,?,?,?,0,42.268176,-71.853386,2020-10-20,Oct,10,20,20,Oct-20
13.1,7.16,?,?,?,?,0,42.269594,-71.848997,2020-10-20,Oct,10,20,20,Oct-20
21.3,?,11.85,?,?,?,0,42.270912,-71.853255,2020-10-20,Oct,10,20,20,Oct-20
13.3,6.85,?,?,?,?,0,42.268148,-71.853357,2020-10-20,Oct,10,20,20,Oct-20
18.7,?,7.33,?,?,?,0,42.270899,-71.853077,2020-10-20,Oct,10,20,20,Oct-20
13.4,6.74,?,?,?,?,0,42.268696,-71.853893,2020-10-20,Oct,10,20,20,Oct-20
13.6,7.2,?,?,?,?,0,42.270264,-71.851388,2020-10-20,Oct,10,20,20,Oct-20
22.5,?,?,?,?,?,0,42.270681,-71.853,2020-10-20,Oct,10,20,20,Oct-20
13.1,7.2,?,?,?,?,0,42.269867,-71.849188,2020-10-20,Oct,10,20,20,Oct-20
14.3,7.35,?,?,?,?,0,42.2698,-71.851298,2020-10-20,Oct,10,20,20,Oct-20
14.1,7.06,?,?,?,?,0,42.269746,-71.849672,2020-10-20,Oct,10,20,20,Oct-20
29.5,?,?,?,?,?,0,42.270395,-71.852964,2020-10-20,Oct,10,20,20,Oct-20
13.2,7.15,?,?,?,?,0,42.269485,-71.849749,2020-10-20,Oct,10,20,20,Oct-20
13.5,0.44,?,?,?,?,0,42.271004,-71.852604,2020-10-20,Oct,10,20,20,Oct-20
7.5,4.6,?,?,?,?,0,42.268588,-71.852811,2020-10-22,Oct,10,20,22,Oct-20
5.1,4.4,?,?,?,?,0,42.268472,-71.852429,2020-10-22,Oct,10,20,22,Oct-20
4.7,4.3,?,?,?,?,0,42.268767,-71.852095,2020-10-22,Oct,10,20,22,Oct-20
6.7,7,?,?,?,?,0,42.271368,-71.849545,2020-11-03,Nov,11,20,3,Nov-20
5.3,7,?,?,?,?,0,42.271078,-71.849425,2020-11-03,Nov,11,20,3,Nov-20
4.9,7,?,?,?,?,0,42.270886,-71.849837,2020-11-03,Nov,11,20,3,Nov-20
5.2,7,?,?,?,?,0,42.270647,-71.850082,2020-11-03,Nov,11,20,3,Nov-20
5.4,7,?,?,?,?,0,42.270075,-71.850178,2020-11-03,Nov,11,20,3,Nov-20
6.3,?,?,?,?,?,0,42.269936,-71.851627,2020-11-03,Nov,11,20,3,Nov-20
6.7,?,?,?,?,?,0,42.269633,-71.851849,2020-11-03,Nov,11,20,3,Nov-20
6.9,?,?,?,?,?,0,42.269906,-71.851956,2020-11-03,Nov,11,20,3,Nov-20
7,?,?,?,?,?,0,42.269877,-71.851923,2020-11-03,Nov,11,20,3,Nov-20
12.6,?,?,?,?,?,0,42.269211,-71.849527,2021-04-20,Apr,4,21,20,Apr-21
16.7,?,?,?,?,?,0,42.269683,-71.849355,2021-04-20,Apr,4,21,20,Apr-21
25,?,?,?,?,?,0,42.269683,-71.849355,2021-04-20,Apr,4,21,20,Apr-21
13.1,?,?,?,?,?,0,42.269211,-71.849527,2021-04-20,Apr,4,21,20,Apr-21
12.4,?,?,?,?,?,0,42.269211,-71.849527,2021-04-20,Apr,4,21,20,Apr-21
?,?,?,?,?,?,0,42.267854,-71.852857,2021-04-20,Apr,4,21,20,Apr-21
25,?,11.6,?,?,?,0,42.269885,-71.850124,2021-04-20,Apr,4,21,20,Apr-21
12.1,?,?,?,?,?,0,42.269211,-71.849527,2021-04-20,Apr,4,21,20,Apr-21
?,?,?,?,?,?,0,42.268103,-71.853328,2021-04-20,Apr,4,21,20,Apr-21
25,?,?,?,?,?,0,42.269648,-71.849964,2021-04-20,Apr,4,21,20,Apr-21
12.2,?,?,?,?,?,0,42.269211,-71.849527,2021-04-20,Apr,4,21,20,Apr-21
12,?,?,?,?,?,0,42.269211,-71.849527,2021-04-20,Apr,4,21,20,Apr-21
25,?,?,?,?,?,0,42.270002,-71.85016,2021-04-20,Apr,4,21,20,Apr-21
25,?,?,?,?,?,0,42.269422,-71.850784,2021-04-20,Apr,4,21,20,Apr-21
12.3,?,0.01,?,?,?,0,42.269211,-71.849527,2021-04-20,Apr,4,21,20,Apr-21
25,?,?,?,?,?,0,42.269805,-71.850711,2021-04-20,Apr,4,21,20,Apr-21
?,?,?,?,?,?,0,42.269805,-71.850711,2021-04-20,Apr,4,21,20,Apr-21
?,?,?,?,?,?,0,42.270346,-71.850035,2021-04-20,Apr,4,21,20,Apr-21
25,?,7.44,?,?,?,0,42.270346,-71.850035,2021-04-20,Apr,4,21,20,Apr-21
?,?,?,?,?,?,0,42.271267,-71.852041,2021-04-20,Apr,4,21,20,Apr-21
25,?,?,?,?,?,0,42.268979,-71.849419,2021-04-20,Apr,4,21,20,Apr-21
25,?,?,?,?,?,0,42.269581,-71.849937,2021-04-20,Apr,4,21,20,Apr-21
14,5,?,2,156,3,0,42.271883,-71.851716,2021-04-20,Apr,4,21,20,Apr-21
?,?,?,?,?,?,0,42.270259,-71.84991,2021-04-20,Apr,4,21,20,Apr-21
12.6,7,?,10,156,4,0,42.271883,-71.851716,2021-04-20,Apr,4,21,20,Apr-21
?,?,?,?,?,?,0,42.269797,-71.849239,2021-04-20,Apr,4,21,20,Apr-21
?,?,?,?,?,?,0,42.269847,-71.849094,2021-04-20,Apr,4,21,20,Apr-21
27.7,?,?,?,?,?,0,42.268992,-71.851856,2021-06-10,Jun,6,21,10,Jun-21
27.4,?,?,?,?,?,0,42.269458,-71.852,2021-06-10,Jun,6,21,10,Jun-21
27.3,?,?,?,?,?,0,42.270382,-71.852204,2021-06-10,Jun,6,21,10,Jun-21
27.5,?,?,?,?,?,0,42.270776,-71.852578,2021-06-10,Jun,6,21,10,Jun-21
29,?,?,?,?,?,0,42.271127,-71.852705,2021-06-10,Jun,6,21,10,Jun-21
29.4,?,?,?,?,?,0,42.271528,-71.852888,2021-06-10,Jun,6,21,10,Jun-21
28.8,?,?,?,?,?,0,42.271393,-71.853112,2021-06-10,Jun,6,21,10,Jun-21
8.2,?,?,?,?,?,0,42.272626,-71.850842,2021-06-10,Jun,6,21,10,Jun-21
27.2,?,?,?,?,?,0,42.270827,-71.853463,2021-06-10,Jun,6,21,10,Jun-21
5.6,?,?,?,?,?,0,42.27192,-71.851147,2021-06-10,Jun,6,21,10,Jun-21
27.4,?,?,?,?,?,0,42.27033,-71.853057,2021-06-10,Jun,6,21,10,Jun-21
4.8,?,?,?,?,?,0,42.271735,-71.852229,2021-06-10,Jun,6,21,10,Jun-21
27.3,?,?,?,?,?,0,42.270019,-71.852527,2021-06-10,Jun,6,21,10,Jun-21
28.2,?,?,?,?,?,0,42.268898,-71.851777,2021-06-10,Jun,6,21,10,Jun-21
28.4,?,?,?,?,?,0,42.268809,-71.85135,2021-06-10,Jun,6,21,10,Jun-21
?,?,?,?,?,?,0,42.267223,-71.852627,2021-06-16,Jun,6,21,16,Jun-21
?,?,?,?,?,?,0,42.267057,-71.852587,2021-06-16,Jun,6,21,16,Jun-21
?,?,?,?,?,?,0,42.266932,-71.85221,2021-06-16,Jun,6,21,16,Jun-21
?,?,?,?,?,?,0,42.26703,-71.852108,2021-06-16,Jun,6,21,16,Jun-21
25.4,?,?,?,?,?,0,42.271035,-71.851594,2021-06-16,Jun,6,21,16,Jun-21
?,?,?,?,?,?,0,42.266794,-71.852693,2021-06-16,Jun,6,21,16,Jun-21
25,?,?,?,?,?,0,42.271158,-71.851083,2021-06-16,Jun,6,21,16,Jun-21
?,?,?,?,?,?,0,42.266815,-71.852604,2021-06-16,Jun,6,21,16,Jun-21
?,?,?,?,?,?,0,42.266755,-71.852437,2021-06-16,Jun,6,21,16,Jun-21
26,?,?,?,?,?,0,42.271493,-71.850739,2021-06-16,Jun,6,21,16,Jun-21
26.7,?,?,?,?,?,0,42.27153,-71.850704,2021-06-16,Jun,6,21,16,Jun-21
40,?,?,?,?,?,0,42.267036,-71.85266,2021-06-16,Jun,6,21,16,Jun-21
26.4,?,?,?,?,?,0,42.271351,-71.85002,2021-06-16,Jun,6,21,16,Jun-21
?,?,?,?,?,?,0,42.266838,-71.85316,2021-06-16,Jun,6,21,16,Jun-21
30,?,?,?,?,?,0,42.271017,-71.849802,2021-06-16,Jun,6,21,16,Jun-21
?,?,?,?,?,?,0,42.266749,-71.853507,2021-06-16,Jun,6,21,16,Jun-21
?,?,?,?,?,?,0,42.266745,-71.853551,2021-06-16,Jun,6,21,16,Jun-21
34.7,?,?,?,?,?,0,42.270509,-71.850202,2021-06-16,Jun,6,21,16,Jun-21
31.8,?,?,?,?,?,0,42.266883,-71.853486,2021-06-16,Jun,6,21,16,Jun-21
35.5,?,?,?,?,?,0,42.270125,-71.850741,2021-06-16,Jun,6,21,16,Jun-21
?,?,?,?,?,?,0,42.267041,-71.853062,2021-06-16,Jun,6,21,16,Jun-21
35.7,?,?,?,?,?,0,42.269581,-71.851744,2021-06-16,Jun,6,21,16,Jun-21
28.7,?,?,?,?,?,0,42.267212,-71.85357,2021-06-16,Jun,6,21,16,Jun-21
32.7,?,?,?,?,?,0,42.267287,-71.85373,2021-06-16,Jun,6,21,16,Jun-21
35.6,?,?,?,?,?,0,42.267344,-71.853789,2021-06-16,Jun,6,21,16,Jun-21
?,?,?,0.1,?,?,0,42.272168,-71.853199,2021-06-24,Jun,6,21,24,Jun-21
0.01,?,?,?,?,?,0,42.272013,-71.852793,2021-06-24,Jun,6,21,24,Jun-21
?,?,?,0.02,?,?,0,42.271599,-71.853446,2021-06-24,Jun,6,21,24,Jun-21
?,?,?,0.2,?,?,0,42.267344,-71.854031,2021-07-14,Jul,7,21,14,Jul-21
?,?,?,?,?,?,0,42.267234,-71.85392,2021-07-14,Jul,7,21,14,Jul-21
25.2,?,2.2,?,?,?,0,42.27059,-71.852074,2021-08-17,Aug,8,21,17,Aug-21
26,?,?,?,?,?,0,42.270569,-71.852105,2021-08-17,Aug,8,21,17,Aug-21
26.7,?,?,?,?,?,0,42.270623,-71.852529,2021-08-17,Aug,8,21,17,Aug-21
26.4,6.84,1.07,?,?,?,0,42.270607,-71.851961,2021-08-17,Aug,8,21,17,Aug-21
?,?,?,?,?,?,0,42.27082,-71.852982,2021-08-17,Aug,8,21,17,Aug-21
25.8,?,?,?,?,?,0,42.270927,-71.851882,2021-08-17,Aug,8,21,17,Aug-21
26.6,3,?,?,?,?,0,42.270811,-71.853352,2021-08-17,Aug,8,21,17,Aug-21
26,?,6.11,?,?,?,0,42.270925,-71.851887,2021-08-17,Aug,8,21,17,Aug-21
25.8,7.4,6.11,?,?,?,0,42.270914,-71.851873,2021-08-17,Aug,8,21,17,Aug-21
25.2,7.6,10.54,?,?,?,0,42.270841,-71.851638,2021-08-17,Aug,8,21,17,Aug-21
25.3,7.6,10.54,?,?,?,0,42.270857,-71.851714,2021-08-17,Aug,8,21,17,Aug-21
26.3,8.94,1.1,?,?,?,0,42.270762,-71.85208,2021-08-17,Aug,8,21,17,Aug-21
?,?,?,?,?,?,0,42.27144,-71.852653,2021-09-22,Sep,9,21,22,Sep-21
?,?,?,?,?,?,0,42.272026,-71.852123,2021-09-22,Sep,9,21,22,Sep-21
