"","Temperature_C","pH","DO","EditDate","Latitude","Longitude"
"1",24,0,9.28,"9/13/2017",42.2691331988,-71.8520055482
"2",25.1,7,10,"9/13/2017",42.2710666106,-71.8493193997
"3",24,0,9.35,"9/13/2017",42.2674446643,-71.8531928447
"4",24.1,0,9.74,"9/13/2017",42.2688721859,-71.8517392547
"5",24.3,0,9.6,"9/13/2017",42.2687029131,-71.8515462198
"6",23.3,0,9.06,"9/13/2017",42.2669940953,-71.8525528026
"7",25.1,0,9.8,"9/13/2017",42.26874147,-71.8511817737
"8",24.2,0,8.8,"9/13/2017",42.2688020298,-71.8514628195
"9",22.9,0,8.74,"9/13/2017",42.2670183605,-71.8530980449
"10",23.5,0,9.7,"9/13/2017",42.2685853151,-71.852292292
"11",21.5,0,9.2,"9/13/2017",42.2684743393,-71.8522538194
"12",24.2,0,8.3,"9/13/2017",42.2691546141,-71.8535928281
"13",23.1,0,10.3,"9/13/2017",42.2685285698,-71.8522016009
"14",22.5,9.8,9,"9/13/2017",42.2680487475,-71.853077425
"15",22.8,0,9.43,"9/13/2017",42.2685838489,-71.8537602989
"16",22.6,0,10.1,"9/13/2017",42.2688032869,-71.852982962
"17",22.4,0,10.1,"9/13/2017",42.2691290913,-71.8535100998
"18",25.3,10.28,9,"9/13/2017",42.2708488483,-71.8531347577
"19",22.6,0,9.9,"9/13/2017",42.2694589189,-71.8530823705
"20",22.5,0,9.7,"9/13/2017",42.2701611131,-71.8529900866
"21",22.2,0,10.2,"9/13/2017",42.2707085775,-71.8531959455
"22",28.5,87.7,0,"9/25/2017",42.2712986612,-71.8518738268
"23",30,0,7.6,"9/25/2017",42.268857941,-71.8528835678
"24",28.4,94.5,0,"9/25/2017",42.2712511138,-71.8522091128
"25",29.6,91.8,0,"9/25/2017",42.2710507924,-71.8523475087
"26",28.8,98.6,0,"9/25/2017",42.2709717815,-71.8527834024
"27",28.6,94.1,0,"9/25/2017",42.2709657656,-71.8531164786
"28",29.1,93.2,0,"9/25/2017",42.2707179359,-71.8533953236
"29",29.8,92.5,0,"9/25/2017",42.2706635716,-71.8530251658
"30",28.6,97,0,"9/25/2017",42.2706789216,-71.8527207667
"31",27.9,8.43,579,"9/25/2017",42.2689675303,-71.8528701135
"32",27.3,0,329,"9/25/2017",42.2695736138,-71.8522245462
"33",29.3,91.8,0,"9/25/2017",42.2707137018,-71.8524722268
"34",27.8,0,8.1,"9/25/2017",42.2696581414,-71.852266847
"35",27.5,0,262,"9/25/2017",42.2695714926,-71.8529377494
"36",28.4,91.3,0,"9/25/2017",42.2705497912,-71.8521636476
"37",29.8,7,7.99,"9/25/2017",42.2693984858,-71.8523883498
"38",27.5,0,263,"9/25/2017",42.2686388362,-71.8534648793
"39",28.5,0,7.87,"9/25/2017",42.2703297148,-71.852381728
"40",28.5,0,7.88,"9/25/2017",42.2703023901,-71.8524170991
"41",26.8,8.36,0,"9/25/2017",42.2702795496,-71.8514319735
"42",24.8,8.64,0,"9/25/2017",42.2714981103,-71.8504801253
"43",25.3,0,100.3,"9/26/2017",42.2696956658,-71.8500061284
"44",25.3,0,117.4,"9/26/2017",42.2701792178,-71.8500075539
"45",25.6,0,113.4,"9/26/2017",42.2704826429,-71.8499757861
"46",25.5,0,110.2,"9/26/2017",42.2715985674,-71.8497668251
"47",25.5,0,114.7,"9/26/2017",42.2711222244,-71.8500643833
"48",27.8,9.37,0,"9/26/2017",42.2699281612,-71.8506296871
"49",25.2,0,107.3,"9/26/2017",42.2704133247,-71.8501805562
"50",17,0,8.33,"9/26/2017",42.2712736851,-71.8519510655
"51",18,0,8.32,"9/26/2017",42.2712793853,-71.8520851754
"52",19,0,9.06,"9/26/2017",42.2713016805,-71.8521344615
"53",20,0,8.3,"9/26/2017",42.2713193247,-71.8519376539
"54",28,0,7.7,"9/26/2017",42.2687542413,-71.8521468175
"55",25.3,0,57.5,"9/26/2017",42.2717623499,-71.8513973563
"56",27.7,0,7.3,"9/26/2017",42.2694124917,-71.8496177501
"57",27.7,0,7.74,"9/26/2017",42.2678757749,-71.8528600833
"58",25.1,0,53.2,"9/26/2017",42.2719410519,-71.8511424631
"59",26.3,0,8.35,"9/26/2017",42.2701694916,-71.849909534
"60",25.9,0,8.6,"9/26/2017",42.2709329916,-71.8497289833
"61",27.4,0,7.74,"9/26/2017",42.2673407418,-71.8529136333
"62",24.1,0,60,"9/26/2017",42.2718119706,-71.8510132978
"63",25.6,0,8.3,"9/26/2017",42.2711444914,-71.8506770839
"64",28.9,0,7.39,"9/26/2017",42.2671933914,-71.8528537007
"65",25.6,0,8.45,"9/26/2017",42.2711189414,-71.8518763172
"66",25.5,0,40.1,"9/26/2017",42.2721275918,-71.8510184942
"67",28.3,0,7.48,"9/26/2017",42.2680676917,-71.85344825
"68",26.6,0,15.8,"9/26/2017",42.2700633804,-71.8528486829
"69",25.5,0,8.2,"9/26/2017",42.2710161749,-71.8528366009
"70",26.4,0,85,"9/26/2017",42.2721936412,-71.8510286368
"71",27.3,0,7.75,"9/26/2017",42.2691084746,-71.8535632508
"72",26.5,0,7.72,"9/26/2017",42.2696648417,-71.8529965338
"73",26.6,0,7.93,"9/26/2017",42.2688547582,-71.8534357667
"74",25.8,0,159,"9/26/2017",42.2691364254,-71.8530977094
"75",26,0,103,"9/26/2017",42.2715070794,-71.8515684315
"76",25.6,0,7.7,"9/26/2017",42.2704494416,-71.8532269341
"77",26.3,0,7.83,"9/26/2017",42.2681981416,-71.8530257342
"78",25.8,0,157,"9/26/2017",42.2692309738,-71.8526061944
"79",26.3,0,7.83,"9/26/2017",42.2673709917,-71.8531711672
"80",26.3,0,7.83,"9/26/2017",42.2668519248,-71.8526844342
"81",25.5,0,158,"9/26/2017",42.2670289213,-71.8526450026
"82",27,0,105,"9/26/2017",42.2713279156,-71.8520982521
"83",27.5,0,106,"9/26/2017",42.2710347173,-71.8529638506
"84",25.3,0,158,"9/26/2017",42.2669243152,-71.8531819474
"85",26,0,8.1,"9/26/2017",42.2672464582,-71.8528633006
"86",25.5,0,7.28,"9/26/2017",42.2692575585,-71.8521383337
"87",27.5,0,107.8,"9/26/2017",42.2709599082,-71.8535209116
"88",25.4,0,7.73,"9/26/2017",42.2680942078,-71.8525686
"89",26.2,0,155,"9/26/2017",42.2683350738,-71.8529163251
"90",26.9,0,8.21,"9/26/2017",42.268736491,-71.8512743172
"91",27.7,0,111,"9/26/2017",42.2704288315,-71.8521866807
"92",27.7,0,9.4,"9/26/2017",42.2698931914,-71.8491235169
"93",26.4,0,7.76,"9/26/2017",42.2696055243,-71.8514866501
"94",25.5,0,112,"9/26/2017",42.2702659711,-71.8516120179
"95",27.3,0,156,"9/26/2017",42.2709464138,-71.8525892634
"96",26,0,7.87,"9/26/2017",42.2696478577,-71.850808467
"97",27.4,0,10.02,"9/26/2017",42.2697999743,-71.8506379174
"98",29.3,0,172,"9/26/2017",42.2714166802,-71.8521446032
"99",25.9,0,7.93,"9/26/2017",42.269579441,-71.8500419339
"100",25.8,0,90.04,"9/26/2017",42.2700262751,-71.8510711837
"101",27.2,0,154,"9/26/2017",42.2711401618,-71.8511449782
"102",27,0,154,"9/26/2017",42.2715238429,-71.8495344794
"103",28.4,7.44,0,"9/27/2017",42.2694610145,-71.8495230796
"104",26.5,22.6,0,"9/27/2017",42.2693982086,-71.8519846514
"105",27.5,7.76,0,"9/27/2017",42.270971727,-71.8510677803
"106",26.8,8.42,0,"9/27/2017",42.2707777278,-71.8512812673
"107",27.3,23.6,0,"9/27/2017",42.2694857083,-71.8530249672
"108",26,117.1,0,"9/27/2017",42.269791765,-71.8505976398
"109",28.5,98.9,0,"9/27/2017",42.2699326226,-71.8506952882
"110",27.1,20.7,0,"9/27/2017",42.2691840456,-71.8525422497
"111",26.1,6.3,0,"9/27/2017",42.2708613372,-71.8508182513
"112",26.5,88.8,0,"9/27/2017",42.2700361392,-71.8509614972
"113",25.4,23.6,0,"9/27/2017",42.2700303551,-71.8509799376
"114",25.2,8.8,0,"9/27/2017",42.2691182371,-71.8495685088
"115",25.7,109.5,0,"9/27/2017",42.2700224769,-71.8510664388
"116",25.4,9.04,0,"9/27/2017",42.2692473182,-71.8527110528
"117",25.8,9,0,"9/27/2017",42.2711791794,-71.850927803
"118",26.9,8.01,8.98,"9/27/2017",42.271359348,-71.850687326
"119",27.4,7.86,0,"9/27/2017",42.2703657159,-71.8513577941
"120",26.1,7.4,0,"9/27/2017",42.2710987963,-71.8519700079
"121",28.2,7.83,0,"9/27/2017",42.2696234141,-71.8500636287
"122",26.6,20.7,0,"9/27/2017",42.2680974722,-71.8524841682
"123",26.2,9.2,0,"9/27/2017",42.271331059,-71.8501475309
"124",25.1,9.23,0,"9/27/2017",42.2698476298,-71.8531272977
"125",25.3,9.1,0,"9/27/2017",42.2714022212,-71.8489156425
"126",27.7,19.8,0,"9/27/2017",42.2674868049,-71.8530335438
"127",25,8,0,"9/27/2017",42.2699270906,-71.8527646132
"128",25.7,8.3,9.55,"9/27/2017",42.2713531453,-71.8496318765
"129",24.8,9.32,0,"9/27/2017",42.2689599864,-71.8530070177
"130",25.2,8.4,0,"9/27/2017",42.2695638611,-71.8521883571
"131",25.9,8.9,0,"9/27/2017",42.2717901358,-71.8497649808
"132",27.3,2.2,28.5,"9/27/2017",42.2680825405,-71.8528650386
"133",25.6,7.1,8.22,"9/27/2017",42.2716023817,-71.8498455307
"134",26.1,8.8,0,"9/27/2017",42.2695695181,-71.8511448095
"135",25,7,7.47,"9/27/2017",42.2681331114,-71.8526760161
"136",27.1,1.9,20.7,"9/27/2017",42.2688511465,-71.8526426111
"137",24.8,8,8.53,"9/27/2017",42.2686674583,-71.8517088287
"138",25.6,8.34,9,"9/27/2017",42.2709560945,-71.8497572702
"139",28.5,2,22,"9/27/2017",42.2695939755,-71.8521557244
"140",25,8,9.08,"9/27/2017",42.269533476,-71.8518913857
"141",25.7,8.5,9.03,"9/27/2017",42.2701372668,-71.8501031076
"142",25.5,9,9.93,"9/27/2017",42.2698727334,-71.8511169822
"143",28.7,2.5,32.4,"9/27/2017",42.2700224129,-71.8508198543
"144",26.4,7,9.43,"9/27/2017",42.2695016253,-71.850104784
"145",17.5,8.2,0,"10/12/2017",42.2700300811,-71.8500361132
"146",17.3,7,0,"10/12/2017",42.270112875,-71.8503684782
"147",17.4,8.1,0,"10/12/2017",42.2703681712,-71.8504873777
"148",17.2,0,59,"10/12/2017",42.2711309817,-71.8520876369
"149",17.7,6.7,0,"10/12/2017",42.2709489279,-71.8506339332
"150",17.1,7.9,0,"10/12/2017",42.2697487513,-71.8519139413
"151",16,0,58.5,"10/12/2017",42.2714616912,-71.8519036375
"152",17.2,8,0,"10/12/2017",42.2696037734,-71.8507852134
"153",17.6,0,6.5,"10/12/2017",42.2704182698,-71.8524209548
"154",17.4,6.7,0,"10/12/2017",42.2693476499,-71.8525351162
"155",16.5,0,52.5,"10/12/2017",42.2714329312,-71.8522125372
"156",17,8.1,0,"10/12/2017",42.2694859717,-71.8498811492
"157",16.5,0,64.5,"10/12/2017",42.2715041513,-71.8521221666
"158",16,0,6.55,"10/12/2017",42.2702775381,-71.8525925325
"159",16.9,6.8,0,"10/12/2017",42.2698941079,-71.8519104128
"160",17,0,6.58,"10/12/2017",42.2706627281,-71.8522311048
"161",14.7,49.8,0,"10/17/2017",42.2687572512,-71.8524126673
"162",14.5,0,44.6,"10/17/2017",42.2706217405,-71.8505248845
"163",15.5,7.1,0,"10/17/2017",42.2710100418,-71.8515399672
"164",14.9,7.3,0,"10/17/2017",42.2711033744,-71.8517716336
"165",13.2,45.3,0,"10/17/2017",42.266943091,-71.8527079975
"166",15,7.3,0,"10/17/2017",42.2710333749,-71.8521383001
"167",14.7,7.8,0,"10/17/2017",42.2703449286,-71.8505783607
"168",14.5,7.4,0,"10/17/2017",42.2706083745,-71.8524616341
"169",14.6,7.4,0,"10/17/2017",42.2700933748,-71.8527183005
"170",14.6,45,0,"10/17/2017",42.2692839512,-71.8531441576
"171",14.8,0,46.5,"10/17/2017",42.2695519312,-71.8514445171
"172",8.8,5.3,0,"11/15/2017",42.2697093746,-71.8496349504
"173",7.1,6.66,0,"11/15/2017",42.2697632744,-71.8490757503
"174",7,7,0,"11/15/2017",42.2709215614,-71.8528672917
"175",7.1,7.2,0,"11/15/2017",42.271338058,-71.8523347055
"176",7.4,4.2,0,"11/15/2017",42.2697040476,-71.8492668444
"177",18.8,7.7,9.6,"11/15/2017",42.2709618786,-71.8526463446
"178",11.1,8.8,6.33,"11/15/2017",42.2688868124,-71.8525166761
"179",9.1,7,0,"11/15/2017",42.2684346566,-71.853342239
"180",7.5,6.04,0,"11/15/2017",42.2698551317,-71.8494900549
"181",10.7,7.9,10.41,"11/15/2017",42.2713201209,-71.8525516292
"182",9.1,7.6,6.4,"11/15/2017",42.2683215787,-71.8525562385
"183",6.4,7.1,0,"11/15/2017",42.2678037794,-71.8533241965
"184",15.2,479,0,"4/23/2018",42.2678430561,-71.8532837883
"185",13.8,7.24,0,"4/23/2018",42.2710267965,-71.8511447268
"186",21,7.3,20.5,"4/23/2018",42.2698718578,-71.8491028178
"187",15.9,7.22,0,"4/23/2018",42.2708756612,-71.849618392
"188",14.6,7.8,0,"4/23/2018",42.27114913,-71.8512655935
"189",15.5,8.3,8.4,"4/23/2018",42.2704173061,-71.8528494372
"190",13.5,8.3,8,"4/23/2018",42.270113797,-71.8527664566
"191",14.9,7.3,305,"4/23/2018",42.2712779206,-71.8495117562
"192",14.5,6.98,0,"4/23/2018",42.2717903036,-71.8517816668
"193",17,570,0,"4/23/2018",42.2687861873,-71.8519331283
"194",12.3,8.4,8.97,"4/23/2018",42.2701378117,-71.8519648117
"195",20,7.5,16.63,"4/23/2018",42.2698010913,-71.8494050511
"196",16,415,0,"4/23/2018",42.2691463999,-71.8529981324
"197",15,7.2,312,"4/23/2018",42.2710336127,-71.850564469
"198",19,7.4,5.02,"4/23/2018",42.269786658,-71.8489587333
"199",14.3,7.3,319,"4/23/2018",42.2705508677,-71.8505567427
"200",16.4,0,7.38,"4/24/2018",42.2681917236,-71.853369607
"201",14.5,0,8.42,"4/24/2018",42.2680798915,-71.8528909274
"202",14.7,0,9.02,"4/24/2018",42.2672515813,-71.852984457
"203",15.6,0,8.2,"4/24/2018",42.2668797214,-71.8522533373
"204",15.1,0,8.76,"4/24/2018",42.2667484016,-71.8525507274
"205",20,0,415,"4/24/2018",42.270283279,-71.8499270034
"206",14.6,0,362,"4/24/2018",42.2710766686,-71.8494117679
"207",19,0,7.6,"4/24/2018",42.2710446081,-71.8518357005
"208",14.1,0,355,"4/24/2018",42.271451801,-71.849005665
"209",13.1,0,8.66,"4/24/2018",42.2675007715,-71.8534461877
"210",17.5,0,8.6,"4/24/2018",42.2715899082,-71.8519537667
"211",15.2,0,371,"4/24/2018",42.2717187643,-71.8496399228
"212",13,7,0,"4/24/2018",42.270123981,-71.8523304308
"213",16,0,416,"4/24/2018",42.2721064694,-71.8501273313
"214",16.2,256,0,"4/24/2018",42.2690304787,-71.8522448508
"215",16,0,18.1,"4/24/2018",42.2707941911,-71.85296485
"216",15,0,8.98,"4/24/2018",42.2693131747,-71.8528124172
"217",17.3,0,353,"4/24/2018",42.2714439637,-71.8495006993
"218",12.5,6.9,0,"4/24/2018",42.2702043223,-71.8529657782
"219",16.4,273,0,"4/24/2018",42.2689075996,-71.8518990138
"220",15.4,0,331,"4/24/2018",42.2714552789,-71.8506999828
"221",12.1,6.9,0,"4/24/2018",42.2704629871,-71.8521036162
"222",15.7,277,0,"4/24/2018",42.2687666996,-71.8519336309
"223",16.9,0,7.3,"4/24/2018",42.271449075,-71.8504424841
"224",15.6,0,8.65,"4/24/2018",42.2684186744,-71.8533583333
"225",13.54,0,12,"4/24/2018",42.2680286409,-71.853485417
"226",28,0,9.07,"5/29/2018",42.2684321783,-71.8529635993
"227",24.6,7.65,0,"5/29/2018",42.2694057364,-71.8523564979
"228",27,6.9,0,"5/29/2018",42.271431291,-71.8526335009
"229",25.3,7.42,0,"5/29/2018",42.2676767172,-71.8532699575
"230",24.5,7.4,0,"5/29/2018",42.2712997085,-71.8525759173
"231",26,9.8,5,"5/29/2018",42.2702789625,-71.8497187965
"232",26,7.6,0,"5/29/2018",42.2669302244,-71.8525010859
"233",26,9.1,5.46,"5/29/2018",42.2705447533,-71.849622154
"234",24.5,7.6,0,"5/29/2018",42.2710655749,-71.8512093011
"235",25.8,8.5,5.9,"5/29/2018",42.2706129816,-71.8494639868
"236",28,0,0,"5/29/2018",42.2670530619,-71.852605189
"237",23.7,7.6,0,"5/29/2018",42.2698660418,-71.8518076
"238",23.7,7.7,0,"5/29/2018",42.2697237414,-71.8519969005
"239",27.3,8.5,0.01,"5/29/2018",42.2699749515,-71.8502674766
"240",24,0,14.96,"5/29/2018",42.2696542596,-71.8516583691
"241",23.6,7.7,0,"5/29/2018",42.269493558,-71.8522195506
"242",24,7.7,0,"5/29/2018",42.2696472917,-71.8518043003
"243",25,8.2,5.74,"5/29/2018",42.2713417045,-71.8500520619
"244",24.3,7.5,0.06,"5/29/2018",42.2699382807,-71.8515116854
"245",24.7,7.7,0,"5/29/2018",42.2696197244,-71.8514844173
"246",24.8,7.8,0,"5/29/2018",42.2695161909,-71.8509585004
"247",25.8,7.6,0.07,"5/29/2018",42.2707930247,-71.8519585254
"248",24,8,6.1,"5/29/2018",42.2707410148,-71.8516920641
"249",23.5,8.1,6.3,"5/29/2018",42.2702723412,-71.8514159642
"250",24.6,7.5,0.04,"5/29/2018",42.26996418,-71.8527237087
"251",24.3,7.5,0.05,"5/29/2018",42.2692404027,-71.8524252294
"252",24.2,8.2,7.7,"5/29/2018",42.269609919,-71.8500407459
"253",23.6,7.5,0.05,"5/29/2018",42.2689885272,-71.8530212669
"254",23.4,7.5,0.05,"5/29/2018",42.2686050548,-71.8533268714
"255",24.5,7.6,0.04,"5/29/2018",42.2685461722,-71.8519430182
"256",27.3,0,9.33,"5/29/2018",42.2719104758,-71.8517966977
"257",19.2,6.3,7.6,"9/27/2018",42.2687433744,-71.8512349676
"258",20,8.4,8.25,"9/27/2018",42.2706217233,-71.8522788153
"259",19.2,7.6,7.91,"9/27/2018",42.2688750414,-71.8515449676
"260",19.2,9.1,8.59,"9/27/2018",42.2704514033,-71.8521809998
"261",18.7,6.28,7.86,"9/27/2018",42.2689333747,-71.8520766341
"262",18.9,8.73,7.24,"9/27/2018",42.2699703178,-71.8514438162
"263",19.2,7.33,7.61,"9/27/2018",42.2679571815,-71.8523638778
"264",18.3,9,7.73,"9/28/2018",42.2714940453,-71.8518143295
"265",18.8,8.77,10.53,"9/28/2018",42.2723793899,-71.852263281
"266",18.6,8.25,11.81,"9/28/2018",42.2714020743,-71.851990813
"267",19.1,7.3,0,"10/9/2018",42.2851788849,-71.8580685979
"268",18.3,7.33,0,"10/9/2018",42.2851809387,-71.8580878756
"269",17,7.5,0,"10/9/2018",42.286034761,-71.856011176
"270",16.7,6.5,12.6,"10/9/2018",42.2861565086,-71.8565357151
"271",18,7.4,0,"10/9/2018",42.2851871414,-71.857529306
"272",15,6.98,0,"10/9/2018",42.2859145577,-71.8556879006
"273",16.9,6.88,6.11,"10/9/2018",42.2858652375,-71.8557332312
"274",17.5,7.38,0,"10/9/2018",42.2852499222,-71.8575026514
"275",16.5,0,8.65,"10/9/2018",42.2865533075,-71.8568246389
"276",17,7.36,0,"10/9/2018",42.2852539869,-71.8569367046
"277",16.3,9.29,8.55,"10/9/2018",42.2851886925,-71.857732902
"278",16.3,9.3,8.55,"10/9/2018",42.2848738847,-71.8579169122
"279",16.3,7.05,8.2,"10/9/2018",42.2847096663,-71.8569919418
"280",16.4,7.2,6.43,"10/9/2018",42.286575017,-71.8586425905
"281",16.4,7.2,6.51,"10/9/2018",42.2865304085,-71.8586061
"282",16.2,9,9.02,"10/9/2018",42.2855932031,-71.8568474379
"283",16.2,9,9.02,"10/9/2018",42.2850516641,-71.8575518849
"284",17.6,7.31,0,"10/9/2018",42.2860928483,-71.8564669833
"285",16.4,7.57,10.24,"10/9/2018",42.2867537189,-71.8567564942
"286",16.6,7.03,6.34,"10/9/2018",42.2854945913,-71.8574106839
"287",16.3,7,9.09,"10/9/2018",42.2856174685,-71.8568739243
"288",16.6,7.38,0,"10/9/2018",42.2862369746,-71.8566476966
"289",9.9,7.39,0,"10/23/2018",42.284964309,-71.8582490595
"290",8.7,7.28,0,"10/23/2018",42.2855973517,-71.8583887859
"291",10.4,0,4.36,"10/23/2018",42.2848767173,-71.859065541
"292",8.1,7.38,0,"10/23/2018",42.2862039078,-71.8585165264
"293",8.1,7.54,0,"10/23/2018",42.2866947945,-71.8585270034
"294",8.5,0,7.34,"10/23/2018",42.2848511108,-71.858167001
"295",10.2,0,2.83,"10/23/2018",42.2844944189,-71.8586038656
"296",11.4,0,3.4,"10/23/2018",42.2852761995,-71.8593558056
"297",8,0,8.16,"10/23/2018",42.284686365,-71.8582798212
"298",25,7.7,0,"10/23/2018",42.2856238807,-71.8590317621
"299",8.2,0,12.35,"10/23/2018",42.2844046904,-71.859550853
"300",7.9,9,0,"10/23/2018",42.285620151,-71.8592764302
"301",7.9,0,8.54,"10/23/2018",42.2848169124,-71.8594491807
"302",8.3,8.58,104.5,"10/23/2018",42.28493514,-71.8582681703
"303",19,5,0,"4/22/2019",42.2695130242,-71.8507667866
"304",18.6,0,11.28,"4/22/2019",42.2698758671,-71.8502626449
"305",19,5,0,"4/22/2019",42.269698558,-71.8510722222
"306",16,10,125,"4/22/2019",42.2692677006,-71.8496360341
"307",17,4,0,"4/22/2019",42.2701144679,-71.8515717847
"308",17.4,0,11.68,"4/22/2019",42.2701398162,-71.8509624268
"309",16,3,0,"4/22/2019",42.2707103377,-71.8522972376
"310",15.5,6.2,197,"4/22/2019",42.26907051,-71.8529473782
"311",16.3,12.05,0,"4/22/2019",42.2706633733,-71.8519857388
"312",15.8,12.26,0,"4/22/2019",42.2703301702,-71.85226498
"313",15.4,3.9,198,"4/22/2019",42.2693537769,-71.8520545417
"314",15.5,12.4,0,"4/22/2019",42.2696668845,-71.8520303885
"315",15.8,4,4.26,"4/22/2019",42.2707693211,-71.8534721154
"316",16,4.56,10.2,"4/22/2019",42.270730789,-71.8523858342
"317",16.1,10,10.52,"4/22/2019",42.2706671401,-71.8522491498
"318",15.5,3.7,10.15,"4/22/2019",42.2705024779,-71.852401867
"319",16.8,5.4,9.41,"4/22/2019",42.2700154143,-71.8510080211
"320",18.2,10.3,24,"4/24/2019",42.2697804396,-71.8490849168
"321",17,106.2,3,"4/24/2019",42.2696966018,-71.8490318174
"322",16.4,0,12,"4/24/2019",42.2704416139,-71.850308716
"323",15.9,10,144.5,"4/24/2019",42.2703793775,-71.8499059646
"324",16.2,6.65,0,"4/24/2019",42.2682652943,-71.8526366215
"325",15.7,6.82,0,"4/24/2019",42.2681447208,-71.852934179
"326",16.4,0,13.04,"4/24/2019",42.2710995093,-71.850898801
"327",15.6,6.89,0,"4/24/2019",42.2676571452,-71.8530293972
"328",16,0,12.16,"4/24/2019",42.2706080364,-71.8513573756
"329",15.8,0,12.08,"4/24/2019",42.2708302822,-71.8522180295
"330",15.5,0,12.64,"4/24/2019",42.27165745,-71.8518441119
"331",15.4,0,12.25,"4/24/2019",42.272005258,-71.8514194011
"332",16,0,13.17,"4/24/2019",42.2725176431,-71.851527528
"333",24.9,7.88,6.22,"7/24/2019",42.2705233748,-71.8500199675
"334",21.4,6.5,3.82,"7/24/2019",42.2714317082,-71.8518049669
"335",18.6,6.6,10.2,"7/24/2019",42.2688200412,-71.852619967
"336",26.2,6.94,44.4,"8/22/2019",42.2709237553,-71.8497157108
"337",25.9,6.61,0,"8/22/2019",42.2710614925,-71.8519475967
"338",26,6.82,4.95,"8/22/2019",42.2714306192,-71.8494782884
"339",25.7,6.43,0,"8/22/2019",42.2711204995,-71.8522150416
"340",25.8,6.96,0,"8/22/2019",42.2701006245,-71.8520744336
"341",25,0,0,"8/22/2019",42.2701193576,-71.8519012502
"342",25.7,6.9,4.7,"8/22/2019",42.271004163,-71.8502693501
"343",25,0.99,0,"8/22/2019",42.2713783858,-71.8519137366
"344",24.9,1.46,0,"8/22/2019",42.2713575376,-71.8519765791
"345",26.1,6.92,0,"8/22/2019",42.2681158083,-71.8530979507
"346",25.6,6.8,4.3,"8/22/2019",42.2698222152,-71.8500784624
"347",24.6,2.33,0,"8/22/2019",42.2715399351,-71.8519613781
"348",25,0,0,"8/22/2019",42.2680430246,-71.8530995669
"349",24.7,2.12,0,"8/22/2019",42.2714375793,-71.8518480935
"350",24.5,2.59,0,"8/22/2019",42.2716028187,-71.8519569174
"351",26,6.8,0,"8/22/2019",42.2701379502,-71.8508792317
"352",26.8,6.86,0,"8/22/2019",42.2668505084,-71.8534543174
"353",25,0,0,"8/22/2019",42.2668555912,-71.8534503336
"354",24.6,3.55,0,"8/22/2019",42.2716966335,-71.8519611626
"355",26,6.85,0,"8/22/2019",42.2705252158,-71.8513185032
"356",25,4.1,0,"8/22/2019",42.271855147,-71.8518877357
"357",28.5,6.97,0,"8/22/2019",42.2706740578,-71.8529491676
"358",25,0,0,"8/22/2019",42.2705415749,-71.8523298344
"359",27.3,2.8,0,"8/22/2019",42.2719875407,-71.851962774
"360",26.8,6.88,0,"8/22/2019",42.2696406875,-71.852111444
"361",26.1,6.8,0,"8/22/2019",42.2709382245,-71.8501457669
"362",25,0,0,"8/22/2019",42.2710361582,-71.8499524011
"363",20,7.52,0,"9/30/2019",42.2697375752,-71.84904288
"364",20.9,7.4,0,"9/30/2019",42.2706260844,-71.8519749213
"365",20.8,0,0,"9/30/2019",42.2677257508,-71.853174991
"366",20.8,7.01,0,"9/30/2019",42.2677257508,-71.853174991
"367",19.7,7.23,0,"9/30/2019",42.2698554251,-71.8492850337
"368",20.5,7.1,0,"9/30/2019",42.2674908068,-71.8531210953
"369",22.2,7.24,202,"9/30/2019",42.271468525,-71.8505729174
"370",20.1,7.05,0,"9/30/2019",42.2671927879,-71.8527811249
"371",19.3,7.25,0,"9/30/2019",42.2696346039,-71.8497799851
"372",20.6,6.82,0,"9/30/2019",42.2668975353,-71.8524383053
"373",19.4,7.22,0,"9/30/2019",42.2695460907,-71.8494185568
"374",20.5,6.85,0,"9/30/2019",42.2669211309,-71.8524144172
"375",20.1,1.8,0,"9/30/2019",42.2670316463,-71.8530233625
"376",20.3,7.18,0,"9/30/2019",42.2695967178,-71.8501367181
"377",20.9,7.2,0,"9/30/2019",42.2699056615,-71.851319379
"378",19.6,7.5,0,"9/30/2019",42.2697707002,-71.8503980453
"379",21.5,6.65,0,"10/2/2019",42.2674125537,-71.8530861316
"380",20.3,6.71,0,"10/2/2019",42.2670808937,-71.8526500894
"381",21.2,7,0,"10/2/2019",42.27026178,-71.8509442312
"382",21,251,0,"10/2/2019",42.271102401,-71.850020546
"383",19.6,0,0,"10/2/2019",42.2697733973,-71.8525804643
"384",20.5,6.85,0,"10/2/2019",42.2670359818,-71.8533431375
"385",19.4,0,0,"10/2/2019",42.2703502168,-71.8529542013
"386",21,0,139,"10/2/2019",42.2685875305,-71.852596865
"387",20.3,6.9,0,"10/2/2019",42.2705502432,-71.8510853826
"388",20.6,250,0,"10/2/2019",42.2712461087,-71.8495326354
"389",19.8,0,0,"10/2/2019",42.2703862662,-71.8523894575
"390",21.2,6.7,0,"10/2/2019",42.2704036852,-71.8498044594
"391",19.4,0,0,"10/2/2019",42.2703846736,-71.8520163338
"392",22,0,243,"10/2/2019",42.2711223912,-71.8499015226
"393",22,0,129,"10/2/2019",42.2675169403,-71.8533024341
"394",20.8,6.8,0,"10/2/2019",42.2704913599,-71.850277199
"395",21.2,0,359,"10/2/2019",42.2707958324,-71.849686946
"396",19.8,0,0,"10/2/2019",42.2705906773,-71.8517783266
"397",21.2,0,359,"10/2/2019",42.2707717351,-71.8496380791
"398",21,0,135,"10/2/2019",42.2686654605,-71.8518722148
"399",20.8,7,0,"10/2/2019",42.27068054,-71.8506057698
"400",21.6,0,357,"10/2/2019",42.2706892985,-71.8498061359
"401",21,0,360,"10/2/2019",42.2708443641,-71.849646461
"402",21.3,0,360,"10/2/2019",42.2710324537,-71.8498819919
"403",21,0,136,"10/2/2019",42.2699686899,-71.851317903
"404",21.1,6.85,0,"10/2/2019",42.2709857667,-71.8512557865
"405",15.8,6.93,0,"10/8/2019",42.2700594408,-71.8506355255
"406",15.4,7.14,0,"10/8/2019",42.2703186931,-71.8505862401
"407",14.7,7.27,0,"10/8/2019",42.2707538394,-71.8512541101
"408",14.8,7.23,0,"10/8/2019",42.2704083798,-71.8502063727
"409",14.6,7.3,0,"10/8/2019",42.2712158081,-71.8511028164
"410",16.1,7.3,225,"10/8/2019",42.2697636623,-71.8493114829
"411",15.2,148,0,"10/8/2019",42.2711394745,-71.8497504676
"412",15.1,6.8,0,"10/8/2019",42.2708344731,-71.8510798495
"413",15,7,0,"10/8/2019",42.268367218,-71.8523050335
"414",14.8,149,0,"10/8/2019",42.2712190749,-71.8499422339
"415",14.5,7,0,"10/8/2019",42.2679023577,-71.8528473414
"416",14.4,114,0,"10/8/2019",42.2713044911,-71.8505553842
"417",15.5,7.19,0,"10/8/2019",42.2695516646,-71.8527052694
"418",14.6,150,0,"10/8/2019",42.2713445747,-71.8499208674
"419",15.2,7.18,0,"10/8/2019",42.2687893308,-71.8519294402
"420",14.5,151,0,"10/8/2019",42.2713693249,-71.8493113507
"421",14.4,146,0,"10/8/2019",42.2711792416,-71.8493305003
"422",15.5,7,0,"10/8/2019",42.2674859138,-71.8530929211
"423",14.9,0,231,"10/8/2019",42.267491644,-71.8533441371
"424",15.5,7.16,0,"10/8/2019",42.2706046418,-71.8524003358
"425",14.8,0,155,"10/8/2019",42.2681157613,-71.8526057764
"426",28.8,8.27,0,"8/12/2020",42.2697583337,-71.8511561487
"427",29.1,8.03,0,"8/12/2020",42.2707229072,-71.8507505559
"428",29.8,6.81,0,"8/12/2020",42.2698728592,-71.8501002572
"429",29.7,7.81,0,"8/12/2020",42.2696189298,-71.8503487808
"430",29.4,8.09,0,"8/12/2020",42.2697324068,-71.8521305267
"431",29.3,8.03,0,"8/12/2020",42.2700838744,-71.8502383077
"432",29.2,8.01,0,"8/12/2020",42.2701937606,-71.8502903579
"433",2.9,8.21,0,"8/12/2020",42.2690140017,-71.8519837118
"434",29.2,8.08,0,"8/12/2020",42.2705100522,-71.8503869182
"435",29.3,7.97,0,"8/12/2020",42.2697170399,-71.8501924583
"436",29.2,8.12,0,"8/12/2020",42.2700353246,-71.8513968715
"437",29.5,0,0,"8/12/2020",42.269504307,-71.8494146183
"438",0,0,0,"8/14/2020",42.2693609136,-71.8528266484
"439",17.8,7.9,0,"9/19/2020",42.2702703643,-71.850235867
"440",18.1,7.38,0,"9/19/2020",42.2699897711,-71.8507380406
"441",18.6,7.31,0,"9/19/2020",42.2705168247,-71.8516054255
"442",19.1,7.23,0,"9/19/2020",42.2711016377,-71.8499114632
"443",18.8,6.65,0,"9/19/2020",42.2708095806,-71.8518253389
"444",18.6,7.23,0,"9/19/2020",42.2708872917,-71.8518904085
"445",18.8,6.55,0,"9/19/2020",42.2708956445,-71.8528358933
"446",18.7,6.62,0,"9/19/2020",42.2711269105,-71.8531684081
"447",18.5,7.15,0,"9/19/2020",42.2708069613,-71.851999672
"448",18.5,6.19,0,"9/19/2020",42.2704474683,-71.8526758744
"449",18,6.21,0,"9/19/2020",42.2698872407,-71.8524675108
"450",18.5,7.35,0,"9/19/2020",42.268022296,-71.8535978926
"451",17.4,6.01,0,"9/19/2020",42.2696457572,-71.8522790526
"452",18.2,7.27,0,"9/19/2020",42.27106625,-71.852090527
"453",18.5,5.8,0,"9/19/2020",42.2688177506,-71.8520099604
"454",18,7.2,0,"9/19/2020",42.2684805803,-71.8528344573
"455",18,7.24,0,"9/19/2020",42.2698729826,-71.8503585401
"456",17.9,7.23,0,"9/19/2020",42.2681914421,-71.8532082605
"457",19.6,7.33,0,"9/19/2020",42.2683576156,-71.8535698884
"458",18,7.23,0,"9/19/2020",42.2693792118,-71.8525500609
"459",17.9,6.57,0,"9/19/2020",42.267863276,-71.8529743402
"460",18.6,5.82,0,"9/19/2020",42.2677133036,-71.8527249331
"461",18.4,7.18,0,"9/19/2020",42.2694198695,-71.8536057333
"462",18.7,5.46,0,"9/19/2020",42.2681286684,-71.8526531583
"463",18.8,5.39,0,"9/19/2020",42.268292404,-71.8527202384
"464",13.4,7.16,0,"10/20/2020",42.2699741973,-71.8526346935
"465",14,6.7,0,"10/20/2020",42.2689761641,-71.8524072085
"466",12.9,7,0,"10/20/2020",42.269544312,-71.8493962818
"467",14.6,7.21,0,"10/20/2020",42.2701264121,-71.8528698896
"468",13.6,6.33,0,"10/20/2020",42.2686380953,-71.8539886565
"469",22.8,0,11.75,"10/20/2020",42.2709738533,-71.8530182871
"470",14,7.14,0,"10/20/2020",42.2703375521,-71.8524083815
"471",13.6,6.24,0,"10/20/2020",42.2681761268,-71.853385964
"472",13.1,7.16,0,"10/20/2020",42.2695941883,-71.8489972918
"473",21.3,0,11.85,"10/20/2020",42.2709121888,-71.8532554602
"474",13.3,6.85,0,"10/20/2020",42.2681478081,-71.8533571764
"475",18.7,0,7.33,"10/20/2020",42.2708993487,-71.8530768695
"476",13.4,6.74,0,"10/20/2020",42.2686956184,-71.853893128
"477",13.6,7.2,0,"10/20/2020",42.2702637914,-71.8513884717
"478",22.5,0,12.2,"10/20/2020",42.2706814068,-71.8529996225
"479",13.1,7.2,0,"10/20/2020",42.2698669556,-71.8491883911
"480",14.3,7.35,0,"10/20/2020",42.2697998113,-71.851297528
"481",14.1,7.06,0,"10/20/2020",42.269745932,-71.8496717259
"482",29.5,0,13.98,"10/20/2020",42.2703950918,-71.8529640797
"483",13.2,7.15,0,"10/20/2020",42.2694850907,-71.8497486142
"484",13.5,0.44,170,"10/20/2020",42.2710038348,-71.8526037306
"485",7.5,4.6,247,"10/22/2020",42.2685878716,-71.8528114676
"486",5.1,4.4,242,"10/22/2020",42.2684723271,-71.8524290016
"487",4.7,4.3,235,"10/22/2020",42.2687671609,-71.852095066
"488",6.7,7,0,"11/3/2020",42.2713675479,-71.8495447463
"489",5.3,7,0,"11/3/2020",42.2710781047,-71.8494247609
"490",4.9,7,0,"11/3/2020",42.2708856013,-71.8498369065
"491",5.2,7,0,"11/3/2020",42.2706469677,-71.8500819073
"492",5.4,7,0,"11/3/2020",42.2700750081,-71.8501775466
"493",6.3,0,0,"11/3/2020",42.2699362918,-71.8516267331
"494",6.7,0,0,"11/3/2020",42.2696333746,-71.8518487509
"495",6.9,0,0,"11/3/2020",42.269906458,-71.8519560508
"496",7,0,0,"11/3/2020",42.2698772577,-71.8519225173
"497",12.6,0,0,"4/20/2021",42.2692113332,-71.8495267167
"498",16.7,0,0,"4/20/2021",42.2696834762,-71.849354873
"499",25,0,0,"4/20/2021",42.2696834762,-71.849354873
"500",13.1,0,0,"4/20/2021",42.2692113332,-71.8495267167
"501",12.4,0,0,"4/20/2021",42.2692113332,-71.8495267167
"502",0,0,0,"4/20/2021",42.2678539308,-71.8528565858
"503",25,0,11.6,"4/20/2021",42.2698853131,-71.8501244799
"504",12.1,0,0,"4/20/2021",42.2692113332,-71.8495267167
"505",0,0,0,"4/20/2021",42.2681026504,-71.8533283191
"506",25,0,19.76,"4/20/2021",42.2696482875,-71.8499644322
"507",12.2,0,0,"4/20/2021",42.2692113332,-71.8495267167
"508",12,0,0,"4/20/2021",42.2692113332,-71.8495267167
"509",25,0,16.27,"4/20/2021",42.2700016172,-71.850160425
"510",25,0,17.67,"4/20/2021",42.2694218037,-71.8507841525
"511",12.3,0,0.01,"4/20/2021",42.2692113332,-71.8495267167
"512",25,0,18.37,"4/20/2021",42.2698053205,-71.8507112497
"513",0,0,0,"4/20/2021",42.2698053205,-71.8507112497
"514",0,0,0,"4/20/2021",42.2703456546,-71.850034567
"515",25,0,7.44,"4/20/2021",42.2703456546,-71.850034567
"516",0,0,0,"4/20/2021",42.2712671275,-71.8520411564
"517",25,0,19.91,"4/20/2021",42.2689787694,-71.8494193963
"518",25,0,19.87,"4/20/2021",42.2695807059,-71.8499373462
"519",14,5,240,"4/20/2021",42.2718831912,-71.8517161896
"520",0,0,0,"4/20/2021",42.2702588923,-71.8499099357
"521",12.6,7,247,"4/20/2021",42.2718831912,-71.8517161896
"522",0,0,0,"4/20/2021",42.2697968618,-71.8492389585
"523",0,0,0,"4/20/2021",42.2698470459,-71.84909406
"524",27.7,0,0,"6/10/2021",42.2689920236,-71.8518564559
"525",27.4,0,0,"6/10/2021",42.2694577936,-71.8519995709
"526",27.3,0,0,"6/10/2021",42.2703816602,-71.85220368
"527",27.5,0,0,"6/10/2021",42.2707758778,-71.8525777245
"528",29,0,0,"6/10/2021",42.2711274897,-71.8527045855
"529",29.4,0,0,"6/10/2021",42.2715279819,-71.852888157
"530",28.8,0,0,"6/10/2021",42.2713934652,-71.8531115567
"531",8.2,0,0,"6/10/2021",42.2726259665,-71.8508421331
"532",27.2,0,0,"6/10/2021",42.270826756,-71.8534630269
"533",5.6,0,0,"6/10/2021",42.2719204504,-71.8511465335
"534",27.4,0,0,"6/10/2021",42.2703297219,-71.8530574478
"535",4.8,0,0,"6/10/2021",42.2717347996,-71.852229133
"536",27.3,0,0,"6/10/2021",42.2700189601,-71.852527169
"537",28.2,0,0,"6/10/2021",42.2688983076,-71.8517767669
"538",28.4,0,0,"6/10/2021",42.2688087431,-71.8513496352
"539",48.4,0,0,"6/16/2021",42.2672231153,-71.8526270143
"540",48.4,0,0,"6/16/2021",42.267056582,-71.8525873358
"541",45,0,0,"6/16/2021",42.2669324457,-71.8522096462
"542",45,0,0,"6/16/2021",42.2670303232,-71.8521083478
"543",25.4,0,0,"6/16/2021",42.2710347992,-71.8515943687
"544",43.7,0,0,"6/16/2021",42.2667943544,-71.8526933671
"545",25,0,0,"6/16/2021",42.2711582061,-71.8510830074
"546",46.3,0,0,"6/16/2021",42.266815435,-71.8526036798
"547",46.4,0,0,"6/16/2021",42.2667549864,-71.8524369377
"548",26,0,0,"6/16/2021",42.271492914,-71.8507386812
"549",26.7,0,0,"6/16/2021",42.2715304,-71.8507035783
"550",40,0,0,"6/16/2021",42.2670356276,-71.8526596714
"551",26.4,0,0,"6/16/2021",42.2713514522,-71.850020099
"552",44.6,0,0,"6/16/2021",42.2668377304,-71.8531602381
"553",30,0,0,"6/16/2021",42.2710171815,-71.8498017193
"554",44.2,0,0,"6/16/2021",42.2667491497,-71.8535071978
"555",44,0,0,"6/16/2021",42.2667447277,-71.8535512627
"556",34.7,0,0,"6/16/2021",42.2705086021,-71.8502023483
"557",31.8,0,0,"6/16/2021",42.266883202,-71.8534856246
"558",35.5,0,0,"6/16/2021",42.270124589,-71.850740918
"559",45.6,0,0,"6/16/2021",42.2670409491,-71.8530623381
"560",35.7,0,0,"6/16/2021",42.2695808124,-71.8517440789
"561",28.7,0,0,"6/16/2021",42.2672122756,-71.853570449
"562",32.7,0,0,"6/16/2021",42.2672866652,-71.8537302917
"563",35.6,0,0,"6/16/2021",42.267343997,-71.8537888813
"564",0,0,0,"6/24/2021",42.2721683583,-71.8531994515
"565",0.01,0,0,"6/24/2021",42.2720127416,-71.8527932835
"566",0,0,0,"6/24/2021",42.2715990578,-71.8534462678
"567",0,0,0,"7/14/2021",42.2673443077,-71.85403075
"568",0,0,0,"7/14/2021",42.2672340083,-71.853920201
"569",25.2,0,2.2,"8/17/2021",42.270589525,-71.85207445
"570",26,0,324,"8/17/2021",42.2705689761,-71.8521045375
"571",26.7,0,291,"8/17/2021",42.2706233335,-71.8525292497
"572",26.4,6.84,1.07,"8/17/2021",42.2706071832,-71.8519608943
"573",269,0,271,"8/17/2021",42.2708199329,-71.8529822915
"574",25.8,0,85.3,"8/17/2021",42.2709267003,-71.8518816995
"575",26.6,3,269,"8/17/2021",42.2708107552,-71.8533520763
"576",26,0,6.11,"8/17/2021",42.2709248669,-71.8518865333
"577",25.8,7.4,6.11,"8/17/2021",42.2709137274,-71.8518727542
"578",25.2,7.6,10.54,"8/17/2021",42.2708409752,-71.8516380472
"579",25.3,7.6,10.54,"8/17/2021",42.2708568666,-71.8517141498
"580",26.3,8.94,1.1,"8/17/2021",42.2707619895,-71.8520804148
"581",1111,0,0,"9/22/2021",42.2714404664,-71.8526530164
"582",2222,0,0,"9/22/2021",42.2720256499,-71.8521233162
